chapter4/memory/TestMemSine.vcd
$date
	Sun Dec 15 15:17:59 2024
$end
$version
	Icarus Verilog
$end
$timescale
	100ps
$end
$scope module TestMemSine $end
$var wire 8 ! q [7:0] $end
$var reg 8 " a [7:0] $end
$var reg 1 # clk $end
$var reg 8 $ d [7:0] $end
$var reg 1 % we $end
$scope module theMem $end
$var wire 8 & addr [7:0] $end
$var wire 1 # clk $end
$var wire 8 ' din [7:0] $end
$var wire 1 % we $end
$var parameter 32 ( DW $end
$var parameter 128 ) INIT_FILE $end
$var parameter 32 * WORDS $end
$var reg 8 + qout [7:0] $end
$upscope $end
$upscope $end
$enddefinitions $end
$comment Show the parameter values. $end
$dumpall
b100000000 *
b1110011011010010110111001100100011000010111010001100001001110000110001000110010001101010011011000101110011001000110000101110100 )
b1000 (
$end
#0
$dumpvars
bx +
b0 '
b0 &
0%
b0 $
0#
b0 "
bx !
$end
#50
b0 !
b0 +
1#
#100
0#
1%
b1 "
b1 &
b10000 $
b10000 '
#150
b11 !
b11 +
1#
#200
0#
b11 "
b11 &
b110000 $
b110000 '
#250
b1001 !
b1001 +
1#
#300
0#
b110 "
b110 &
b1100000 $
b1100000 '
#350
b10011 !
b10011 +
1#
#400
0#
b1010 "
b1010 &
b10100000 $
b10100000 '
#450
b11111 !
b11111 +
1#
#500
0#
b1111 "
b1111 &
b11110000 $
b11110000 '
#550
b101110 !
b101110 +
1#
#600
0#
0%
b0 "
b0 &
b0 $
b0 '
#650
b0 !
b0 +
1#
#700
0#
b1 "
b1 &
#750
b10000 !
b10000 +
1#
#800
0#
b10 "
b10 &
#850
b110 !
b110 +
1#
#900
0#
b11 "
b11 &
#950
b110000 !
b110000 +
1#
#1000
0#
b100 "
b100 &
#1050
b1100 !
b1100 +
1#
#1100
0#
b101 "
b101 &
#1150
b10000 !
b10000 +
1#
#1200
0#
b110 "
b110 &
#1250
b1100000 !
b1100000 +
1#
#1300
0#
b111 "
b111 &
#1350
b10110 !
b10110 +
1#
#1400
0#
b1000 "
b1000 &
#1450
b11001 !
b11001 +
1#
#1500
0#
b1001 "
b1001 &
#1550
b11100 !
b11100 +
1#
#1600
0#
b1010 "
b1010 &
#1650
b10100000 !
b10100000 +
1#
#1700
0#
b1011 "
b1011 &
#1750
b100010 !
b100010 +
1#
#1800
0#
b1100 "
b1100 &
#1850
b100101 !
b100101 +
1#
#1900
0#
b1101 "
b1101 &
#1950
b101000 !
b101000 +
1#
#2000
0#
b1110 "
b1110 &
#2050
b101011 !
b101011 +
1#
#2100
0#
b1111 "
b1111 &
#2150
b11110000 !
b11110000 +
1#
#2200
0#
b10000 "
b10000 &
#2250
b110001 !
b110001 +
1#
#2300
0#
b10001 "
b10001 &
#2350
b110011 !
b110011 +
1#
#2400
0#
b10010 "
b10010 &
#2450
b110110 !
b110110 +
1#
#2500
0#
b10011 "
b10011 &
#2550
b111001 !
b111001 +
1#
#2600
0#
b10100 "
b10100 &
#2650
b111100 !
b111100 +
1#
#2700
0#
b10101 "
b10101 &
#2750
b111111 !
b111111 +
1#
#2800
0#
b10110 "
b10110 &
#2850
b1000001 !
b1000001 +
1#
#2900
0#
b10111 "
b10111 &
#2950
b1000100 !
b1000100 +
1#
#3000
0#
b11000 "
b11000 &
#3050
b1000111 !
b1000111 +
1#
#3100
0#
b11001 "
b11001 &
#3150
b1001001 !
b1001001 +
1#
#3200
0#
b11010 "
b11010 &
#3250
b1001100 !
b1001100 +
1#
#3300
0#
b11011 "
b11011 &
#3350
b1001110 !
b1001110 +
1#
#3400
0#
b11100 "
b11100 &
#3450
b1010001 !
b1010001 +
1#
#3500
0#
b11101 "
b11101 &
#3550
b1010011 !
b1010011 +
1#
#3600
0#
b11110 "
b11110 &
#3650
b1010101 !
b1010101 +
1#
#3700
0#
b11111 "
b11111 &
#3750
b1011000 !
b1011000 +
1#
#3800
0#
b100000 "
b100000 &
#3850
b1011010 !
b1011010 +
1#
#3900
0#
b100001 "
b100001 &
#3950
b1011100 !
b1011100 +
1#
#4000
0#
b100010 "
b100010 &
#4050
b1011110 !
b1011110 +
1#
#4100
0#
b100011 "
b100011 &
#4150
b1100000 !
b1100000 +
1#
#4200
0#
b100100 "
b100100 &
#4250
b1100010 !
b1100010 +
1#
#4300
0#
b100101 "
b100101 &
#4350
b1100100 !
b1100100 +
1#
#4400
0#
b100110 "
b100110 &
#4450
b1100110 !
b1100110 +
1#
#4500
0#
b100111 "
b100111 &
#4550
b1101000 !
b1101000 +
1#
#4600
0#
b101000 "
b101000 &
#4650
b1101010 !
b1101010 +
1#
#4700
0#
b101001 "
b101001 &
#4750
b1101011 !
b1101011 +
1#
#4800
0#
b101010 "
b101010 &
#4850
b1101101 !
b1101101 +
1#
#4900
0#
b101011 "
b101011 &
#4950
b1101111 !
b1101111 +
1#
#5000
0#
b101100 "
b101100 &
#5050
b1110000 !
b1110000 +
1#
#5100
0#
b101101 "
b101101 &
#5150
b1110001 !
b1110001 +
1#
#5200
0#
b101110 "
b101110 &
#5250
b1110011 !
b1110011 +
1#
#5300
0#
b101111 "
b101111 &
#5350
b1110100 !
b1110100 +
1#
#5400
0#
b110000 "
b110000 &
#5450
b1110101 !
b1110101 +
1#
#5500
0#
b110001 "
b110001 &
#5550
b1110110 !
b1110110 +
1#
#5600
0#
b110010 "
b110010 &
#5650
b1111000 !
b1111000 +
1#
#5700
0#
b110011 "
b110011 &
#5750
b1111001 !
b1111001 +
1#
#5800
0#
b110100 "
b110100 &
#5850
b1111010 !
b1111010 +
1#
#5900
0#
b110101 "
b110101 &
#5950
1#
#6000
0#
b110110 "
b110110 &
#6050
b1111011 !
b1111011 +
1#
#6100
0#
b110111 "
b110111 &
#6150
b1111100 !
b1111100 +
1#
#6200
0#
b111000 "
b111000 &
#6250
b1111101 !
b1111101 +
1#
#6300
0#
b111001 "
b111001 &
#6350
1#
#6400
0#
b111010 "
b111010 &
#6450
b1111110 !
b1111110 +
1#
#6500
0#
b111011 "
b111011 &
#6550
1#
#6600
0#
b111100 "
b111100 &
#6650
1#
#6700
0#
b111101 "
b111101 &
#6750
b1111111 !
b1111111 +
1#
#6800
0#
b111110 "
b111110 &
#6850
1#
#6900
0#
b111111 "
b111111 &
#6950
1#
#7000
0#
b1000000 "
b1000000 &
#7050
1#
#7100
0#
b1000001 "
b1000001 &
#7150
1#
#7200
0#
b1000010 "
b1000010 &
#7250
1#
#7300
0#
b1000011 "
b1000011 &
#7350
1#
#7400
0#
b1000100 "
b1000100 &
#7450
b1111110 !
b1111110 +
1#
#7500
0#
b1000101 "
b1000101 &
#7550
1#
#7600
0#
b1000110 "
b1000110 &
#7650
1#
#7700
0#
b1000111 "
b1000111 &
#7750
b1111101 !
b1111101 +
1#
#7800
0#
b1001000 "
b1001000 &
#7850
1#
#7900
0#
b1001001 "
b1001001 &
#7950
b1111100 !
b1111100 +
1#
#8000
0#
b1001010 "
b1001010 &
#8050
b1111011 !
b1111011 +
1#
#8100
0#
b1001011 "
b1001011 &
#8150
b1111010 !
b1111010 +
1#
#8200
0#
b1001100 "
b1001100 &
#8250
1#
#8300
0#
b1001101 "
b1001101 &
#8350
b1111001 !
b1111001 +
1#
#8400
0#
b1001110 "
b1001110 &
#8450
b1111000 !
b1111000 +
1#
#8500
0#
b1001111 "
b1001111 &
#8550
b1110110 !
b1110110 +
1#
#8600
0#
b1010000 "
b1010000 &
#8650
b1110101 !
b1110101 +
1#
#8700
0#
b1010001 "
b1010001 &
#8750
b1110100 !
b1110100 +
1#
#8800
0#
b1010010 "
b1010010 &
#8850
b1110011 !
b1110011 +
1#
#8900
0#
b1010011 "
b1010011 &
#8950
b1110001 !
b1110001 +
1#
#9000
0#
b1010100 "
b1010100 &
#9050
b1110000 !
b1110000 +
1#
#9100
0#
b1010101 "
b1010101 &
#9150
b1101111 !
b1101111 +
1#
#9200
0#
b1010110 "
b1010110 &
#9250
b1101101 !
b1101101 +
1#
#9300
0#
b1010111 "
b1010111 &
#9350
b1101011 !
b1101011 +
1#
#9400
0#
b1011000 "
b1011000 &
#9450
b1101010 !
b1101010 +
1#
#9500
0#
b1011001 "
b1011001 &
#9550
b1101000 !
b1101000 +
1#
#9600
0#
b1011010 "
b1011010 &
#9650
b1100110 !
b1100110 +
1#
#9700
0#
b1011011 "
b1011011 &
#9750
b1100100 !
b1100100 +
1#
#9800
0#
b1011100 "
b1011100 &
#9850
b1100010 !
b1100010 +
1#
#9900
0#
b1011101 "
b1011101 &
#9950
b1100000 !
b1100000 +
1#
#10000
0#
b1011110 "
b1011110 &
#10050
b1011110 !
b1011110 +
1#
#10100
0#
b1011111 "
b1011111 &
#10150
b1011100 !
b1011100 +
1#
#10200
0#
b1100000 "
b1100000 &
#10250
b1011010 !
b1011010 +
1#
#10300
0#
b1100001 "
b1100001 &
#10350
b1011000 !
b1011000 +
1#
#10400
0#
b1100010 "
b1100010 &
#10450
b1010101 !
b1010101 +
1#
#10500
0#
b1100011 "
b1100011 &
#10550
b1010011 !
b1010011 +
1#
#10600
0#
b1100100 "
b1100100 &
#10650
b1010001 !
b1010001 +
1#
#10700
0#
b1100101 "
b1100101 &
#10750
b1001110 !
b1001110 +
1#
#10800
0#
b1100110 "
b1100110 &
#10850
b1001100 !
b1001100 +
1#
#10900
0#
b1100111 "
b1100111 &
#10950
b1001001 !
b1001001 +
1#
#11000
0#
b1101000 "
b1101000 &
#11050
b1000111 !
b1000111 +
1#
#11100
0#
b1101001 "
b1101001 &
#11150
b1000100 !
b1000100 +
1#
#11200
0#
b1101010 "
b1101010 &
#11250
b1000001 !
b1000001 +
1#
#11300
0#
b1101011 "
b1101011 &
#11350
b111111 !
b111111 +
1#
#11400
0#
b1101100 "
b1101100 &
#11450
b111100 !
b111100 +
1#
#11500
0#
b1101101 "
b1101101 &
#11550
b111001 !
b111001 +
1#
#11600
0#
b1101110 "
b1101110 &
#11650
b110110 !
b110110 +
1#
#11700
0#
b1101111 "
b1101111 &
#11750
b110011 !
b110011 +
1#
#11800
0#
b1110000 "
b1110000 &
#11850
b110001 !
b110001 +
1#
#11900
0#
b1110001 "
b1110001 &
#11950
b101110 !
b101110 +
1#
#12000
0#
b1110010 "
b1110010 &
#12050
b101011 !
b101011 +
1#
#12100
0#
b1110011 "
b1110011 &
#12150
b101000 !
b101000 +
1#
#12200
0#
b1110100 "
b1110100 &
#12250
b100101 !
b100101 +
1#
#12300
0#
b1110101 "
b1110101 &
#12350
b100010 !
b100010 +
1#
#12400
0#
b1110110 "
b1110110 &
#12450
b11111 !
b11111 +
1#
#12500
0#
b1110111 "
b1110111 &
#12550
b11100 !
b11100 +
1#
#12600
0#
b1111000 "
b1111000 &
#12650
b11001 !
b11001 +
1#
#12700
0#
b1111001 "
b1111001 &
#12750
b10110 !
b10110 +
1#
#12800
0#
b1111010 "
b1111010 &
#12850
b10011 !
b10011 +
1#
#12900
0#
b1111011 "
b1111011 &
#12950
b10000 !
b10000 +
1#
#13000
0#
b1111100 "
b1111100 &
#13050
b1100 !
b1100 +
1#
#13100
0#
b1111101 "
b1111101 &
#13150
b1001 !
b1001 +
1#
#13200
0#
b1111110 "
b1111110 &
#13250
b110 !
b110 +
1#
#13300
0#
b1111111 "
b1111111 &
#13350
b11 !
b11 +
1#
#13400
0#
b10000000 "
b10000000 &
#13450
b0 !
b0 +
1#
#13500
0#
b10000001 "
b10000001 &
#13550
b11111101 !
b11111101 +
1#
#13600
0#
b10000010 "
b10000010 &
#13650
b11111010 !
b11111010 +
1#
#13700
0#
b10000011 "
b10000011 &
#13750
b11110111 !
b11110111 +
1#
#13800
0#
b10000100 "
b10000100 &
#13850
b11110100 !
b11110100 +
1#
#13900
0#
b10000101 "
b10000101 &
#13950
b11110000 !
b11110000 +
1#
#14000
0#
b10000110 "
b10000110 &
#14050
b11101101 !
b11101101 +
1#
#14100
0#
b10000111 "
b10000111 &
#14150
b11101010 !
b11101010 +
1#
#14200
0#
b10001000 "
b10001000 &
#14250
b11100111 !
b11100111 +
1#
#14300
0#
b10001001 "
b10001001 &
#14350
b11100100 !
b11100100 +
1#
#14400
0#
b10001010 "
b10001010 &
#14450
b11100001 !
b11100001 +
1#
#14500
0#
b10001011 "
b10001011 &
#14550
b11011110 !
b11011110 +
1#
#14600
0#
b10001100 "
b10001100 &
#14650
b11011011 !
b11011011 +
1#
#14700
0#
b10001101 "
b10001101 &
#14750
b11011000 !
b11011000 +
1#
#14800
0#
b10001110 "
b10001110 &
#14850
b11010101 !
b11010101 +
1#
#14900
0#
b10001111 "
b10001111 &
#14950
b11010010 !
b11010010 +
1#
#15000
0#
b10010000 "
b10010000 &
#15050
b11001111 !
b11001111 +
1#
#15100
0#
b10010001 "
b10010001 &
#15150
b11001101 !
b11001101 +
1#
#15200
0#
b10010010 "
b10010010 &
#15250
b11001010 !
b11001010 +
1#
#15300
0#
b10010011 "
b10010011 &
#15350
b11000111 !
b11000111 +
1#
#15400
0#
b10010100 "
b10010100 &
#15450
b11000100 !
b11000100 +
1#
#15500
0#
b10010101 "
b10010101 &
#15550
b11000001 !
b11000001 +
1#
#15600
0#
b10010110 "
b10010110 &
#15650
b10111111 !
b10111111 +
1#
#15700
0#
b10010111 "
b10010111 &
#15750
b10111100 !
b10111100 +
1#
#15800
0#
b10011000 "
b10011000 &
#15850
b10111001 !
b10111001 +
1#
#15900
0#
b10011001 "
b10011001 &
#15950
b10110111 !
b10110111 +
1#
#16000
0#
b10011010 "
b10011010 &
#16050
b10110100 !
b10110100 +
1#
#16100
0#
b10011011 "
b10011011 &
#16150
b10110010 !
b10110010 +
1#
#16200
0#
b10011100 "
b10011100 &
#16250
b10101111 !
b10101111 +
1#
#16300
0#
b10011101 "
b10011101 &
#16350
b10101101 !
b10101101 +
1#
#16400
0#
b10011110 "
b10011110 &
#16450
b10101011 !
b10101011 +
1#
#16500
0#
b10011111 "
b10011111 &
#16550
b10101000 !
b10101000 +
1#
#16600
0#
b10100000 "
b10100000 &
#16650
b10100110 !
b10100110 +
1#
#16700
0#
b10100001 "
b10100001 &
#16750
b10100100 !
b10100100 +
1#
#16800
0#
b10100010 "
b10100010 &
#16850
b10100010 !
b10100010 +
1#
#16900
0#
b10100011 "
b10100011 &
#16950
b10100000 !
b10100000 +
1#
#17000
0#
b10100100 "
b10100100 &
#17050
b10011110 !
b10011110 +
1#
#17100
0#
b10100101 "
b10100101 &
#17150
b10011100 !
b10011100 +
1#
#17200
0#
b10100110 "
b10100110 &
#17250
b10011010 !
b10011010 +
1#
#17300
0#
b10100111 "
b10100111 &
#17350
b10011000 !
b10011000 +
1#
#17400
0#
b10101000 "
b10101000 &
#17450
b10010110 !
b10010110 +
1#
#17500
0#
b10101001 "
b10101001 &
#17550
b10010101 !
b10010101 +
1#
#17600
0#
b10101010 "
b10101010 &
#17650
b10010011 !
b10010011 +
1#
#17700
0#
b10101011 "
b10101011 &
#17750
b10010001 !
b10010001 +
1#
#17800
0#
b10101100 "
b10101100 &
#17850
b10010000 !
b10010000 +
1#
#17900
0#
b10101101 "
b10101101 &
#17950
b10001111 !
b10001111 +
1#
#18000
0#
b10101110 "
b10101110 &
#18050
b10001101 !
b10001101 +
1#
#18100
0#
b10101111 "
b10101111 &
#18150
b10001100 !
b10001100 +
1#
#18200
0#
b10110000 "
b10110000 &
#18250
b10001011 !
b10001011 +
1#
#18300
0#
b10110001 "
b10110001 &
#18350
b10001010 !
b10001010 +
1#
#18400
0#
b10110010 "
b10110010 &
#18450
b10001000 !
b10001000 +
1#
#18500
0#
b10110011 "
b10110011 &
#18550
b10000111 !
b10000111 +
1#
#18600
0#
b10110100 "
b10110100 &
#18650
b10000110 !
b10000110 +
1#
#18700
0#
b10110101 "
b10110101 &
#18750
1#
#18800
0#
b10110110 "
b10110110 &
#18850
b10000101 !
b10000101 +
1#
#18900
0#
b10110111 "
b10110111 &
#18950
b10000100 !
b10000100 +
1#
#19000
0#
b10111000 "
b10111000 &
#19050
b10000011 !
b10000011 +
1#
#19100
0#
b10111001 "
b10111001 &
#19150
1#
#19200
0#
b10111010 "
b10111010 &
#19250
b10000010 !
b10000010 +
1#
#19300
0#
b10111011 "
b10111011 &
#19350
1#
#19400
0#
b10111100 "
b10111100 &
#19450
1#
#19500
0#
b10111101 "
b10111101 &
#19550
b10000001 !
b10000001 +
1#
#19600
0#
b10111110 "
b10111110 &
#19650
1#
#19700
0#
b10111111 "
b10111111 &
#19750
1#
#19800
0#
b11000000 "
b11000000 &
#19850
1#
#19900
0#
b11000001 "
b11000001 &
#19950
1#
#20000
0#
b11000010 "
b11000010 &
#20050
1#
#20100
0#
b11000011 "
b11000011 &
#20150
1#
#20200
0#
b11000100 "
b11000100 &
#20250
b10000010 !
b10000010 +
1#
#20300
0#
b11000101 "
b11000101 &
#20350
1#
#20400
0#
b11000110 "
b11000110 &
#20450
1#
#20500
0#
b11000111 "
b11000111 &
#20550
b10000011 !
b10000011 +
1#
#20600
0#
b11001000 "
b11001000 &
#20650
1#
#20700
0#
b11001001 "
b11001001 &
#20750
b10000100 !
b10000100 +
1#
#20800
0#
b11001010 "
b11001010 &
#20850
b10000101 !
b10000101 +
1#
#20900
0#
b11001011 "
b11001011 &
#20950
b10000110 !
b10000110 +
1#
#21000
0#
b11001100 "
b11001100 &
#21050
1#
#21100
0#
b11001101 "
b11001101 &
#21150
b10000111 !
b10000111 +
1#
#21200
0#
b11001110 "
b11001110 &
#21250
b10001000 !
b10001000 +
1#
#21300
0#
b11001111 "
b11001111 &
#21350
b10001010 !
b10001010 +
1#
#21400
0#
b11010000 "
b11010000 &
#21450
b10001011 !
b10001011 +
1#
#21500
0#
b11010001 "
b11010001 &
#21550
b10001100 !
b10001100 +
1#
#21600
0#
b11010010 "
b11010010 &
#21650
b10001101 !
b10001101 +
1#
#21700
0#
b11010011 "
b11010011 &
#21750
b10001111 !
b10001111 +
1#
#21800
0#
b11010100 "
b11010100 &
#21850
b10010000 !
b10010000 +
1#
#21900
0#
b11010101 "
b11010101 &
#21950
b10010001 !
b10010001 +
1#
#22000
0#
b11010110 "
b11010110 &
#22050
b10010011 !
b10010011 +
1#
#22100
0#
b11010111 "
b11010111 &
#22150
b10010101 !
b10010101 +
1#
#22200
0#
b11011000 "
b11011000 &
#22250
b10010110 !
b10010110 +
1#
#22300
0#
b11011001 "
b11011001 &
#22350
b10011000 !
b10011000 +
1#
#22400
0#
b11011010 "
b11011010 &
#22450
b10011010 !
b10011010 +
1#
#22500
0#
b11011011 "
b11011011 &
#22550
b10011100 !
b10011100 +
1#
#22600
0#
b11011100 "
b11011100 &
#22650
b10011110 !
b10011110 +
1#
#22700
0#
b11011101 "
b11011101 &
#22750
b10100000 !
b10100000 +
1#
#22800
0#
b11011110 "
b11011110 &
#22850
b10100010 !
b10100010 +
1#
#22900
0#
b11011111 "
b11011111 &
#22950
b10100100 !
b10100100 +
1#
#23000
0#
b11100000 "
b11100000 &
#23050
b10100110 !
b10100110 +
1#
#23100
0#
b11100001 "
b11100001 &
#23150
b10101000 !
b10101000 +
1#
#23200
0#
b11100010 "
b11100010 &
#23250
b10101011 !
b10101011 +
1#
#23300
0#
b11100011 "
b11100011 &
#23350
b10101101 !
b10101101 +
1#
#23400
0#
b11100100 "
b11100100 &
#23450
b10101111 !
b10101111 +
1#
#23500
0#
b11100101 "
b11100101 &
#23550
b10110010 !
b10110010 +
1#
#23600
0#
b11100110 "
b11100110 &
#23650
b10110100 !
b10110100 +
1#
#23700
0#
b11100111 "
b11100111 &
#23750
b10110111 !
b10110111 +
1#
#23800
0#
b11101000 "
b11101000 &
#23850
b10111001 !
b10111001 +
1#
#23900
0#
b11101001 "
b11101001 &
#23950
b10111100 !
b10111100 +
1#
#24000
0#
b11101010 "
b11101010 &
#24050
b10111111 !
b10111111 +
1#
#24100
0#
b11101011 "
b11101011 &
#24150
b11000001 !
b11000001 +
1#
#24200
0#
b11101100 "
b11101100 &
#24250
b11000100 !
b11000100 +
1#
#24300
0#
b11101101 "
b11101101 &
#24350
b11000111 !
b11000111 +
1#
#24400
0#
b11101110 "
b11101110 &
#24450
b11001010 !
b11001010 +
1#
#24500
0#
b11101111 "
b11101111 &
#24550
b11001101 !
b11001101 +
1#
#24600
0#
b11110000 "
b11110000 &
#24650
b11001111 !
b11001111 +
1#
#24700
0#
b11110001 "
b11110001 &
#24750
b11010010 !
b11010010 +
1#
#24800
0#
b11110010 "
b11110010 &
#24850
b11010101 !
b11010101 +
1#
#24900
0#
b11110011 "
b11110011 &
#24950
b11011000 !
b11011000 +
1#
#25000
0#
b11110100 "
b11110100 &
#25050
b11011011 !
b11011011 +
1#
#25100
0#
b11110101 "
b11110101 &
#25150
b11011110 !
b11011110 +
1#
#25200
0#
b11110110 "
b11110110 &
#25250
b11100001 !
b11100001 +
1#
#25300
0#
b11110111 "
b11110111 &
#25350
b11100100 !
b11100100 +
1#
#25400
0#
b11111000 "
b11111000 &
#25450
b11100111 !
b11100111 +
1#
#25500
0#
b11111001 "
b11111001 &
#25550
b11101010 !
b11101010 +
1#
#25600
0#
b11111010 "
b11111010 &
#25650
b11101101 !
b11101101 +
1#
#25700
0#
b11111011 "
b11111011 &
#25750
b11110000 !
b11110000 +
1#
#25800
0#
b11111100 "
b11111100 &
#25850
b11110100 !
b11110100 +
1#
#25900
0#
b11111101 "
b11111101 &
#25950
b11110111 !
b11110111 +
1#
#26000
0#
b11111110 "
b11111110 &
#26050
b11111010 !
b11111010 +
1#
#26100
0#
b11111111 "
b11111111 &
#26150
b11111101 !
b11111101 +
1#
#26200
0#
b0 "
b0 &
#26250
b0 !
b0 +
1#
#26300
0#
b1 "
b1 &
#26350
b10000 !
b10000 +
1#
#26400
0#
b10 "
b10 &
#26450
b110 !
b110 +
1#
#26500
0#
b11 "
b11 &
#26550
b110000 !
b110000 +
1#
#26600
0#
b100 "
b100 &
#26650
b1100 !
b1100 +
1#
#26700
0#
b101 "
b101 &
#26750
b10000 !
b10000 +
1#
#26800
0#
b110 "
b110 &
#26850
b1100000 !
b1100000 +
1#
#26900
0#
b111 "
b111 &
#26950
b10110 !
b10110 +
1#
#27000
0#
b1000 "
b1000 &
#27050
b11001 !
b11001 +
1#
#27100
0#
b1001 "
b1001 &
#27150
b11100 !
b11100 +
1#
#27200
0#
b1010 "
b1010 &
#27250
b10100000 !
b10100000 +
1#
#27300
0#
b1011 "
b1011 &
#27350
b100010 !
b100010 +
1#
#27400
0#
b1100 "
b1100 &
#27450
b100101 !
b100101 +
1#
#27500
0#
b1101 "
b1101 &
#27550
b101000 !
b101000 +
1#
#27600
0#
b1110 "
b1110 &
#27650
b101011 !
b101011 +
1#
#27700
0#
b1111 "
b1111 &
#27750
b11110000 !
b11110000 +
1#
#27800
0#
b10000 "
b10000 &
#27850
b110001 !
b110001 +
1#
#27900
0#
b10001 "
b10001 &
#27950
b110011 !
b110011 +
1#
#28000
0#
b10010 "
b10010 &
#28050
b110110 !
b110110 +
1#
#28100
0#
b10011 "
b10011 &
#28150
b111001 !
b111001 +
1#
#28200
0#
b10100 "
b10100 &
#28250
b111100 !
b111100 +
1#
#28300
0#
b10101 "
b10101 &
#28350
b111111 !
b111111 +
1#
#28400
0#
b10110 "
b10110 &
#28450
b1000001 !
b1000001 +
1#
#28500
0#
b10111 "
b10111 &
#28550
b1000100 !
b1000100 +
1#
#28600
0#
b11000 "
b11000 &
#28650
b1000111 !
b1000111 +
1#
#28700
0#
b11001 "
b11001 &
#28750
b1001001 !
b1001001 +
1#
#28800
0#
b11010 "
b11010 &
#28850
b1001100 !
b1001100 +
1#
#28900
0#
b11011 "
b11011 &
#28950
b1001110 !
b1001110 +
1#
#29000
0#
b11100 "
b11100 &
#29050
b1010001 !
b1010001 +
1#
#29100
0#
b11101 "
b11101 &
#29150
b1010011 !
b1010011 +
1#
#29200
0#
b11110 "
b11110 &
#29250
b1010101 !
b1010101 +
1#
#29300
0#
b11111 "
b11111 &
#29350
b1011000 !
b1011000 +
1#
#29400
0#
b100000 "
b100000 &
#29450
b1011010 !
b1011010 +
1#
#29500
0#
b100001 "
b100001 &
#29550
b1011100 !
b1011100 +
1#
#29600
0#
b100010 "
b100010 &
#29650
b1011110 !
b1011110 +
1#
#29700
0#
b100011 "
b100011 &
#29750
b1100000 !
b1100000 +
1#
#29800
0#
b100100 "
b100100 &
#29850
b1100010 !
b1100010 +
1#
#29900
0#
b100101 "
b100101 &
#29950
b1100100 !
b1100100 +
1#
#30000
0#
b100110 "
b100110 &
#30050
b1100110 !
b1100110 +
1#
#30100
0#
b100111 "
b100111 &
#30150
b1101000 !
b1101000 +
1#
#30200
0#
b101000 "
b101000 &
#30250
b1101010 !
b1101010 +
1#
#30300
0#
b101001 "
b101001 &
#30350
b1101011 !
b1101011 +
1#
#30400
0#
b101010 "
b101010 &
#30450
b1101101 !
b1101101 +
1#
#30500
0#
b101011 "
b101011 &
#30550
b1101111 !
b1101111 +
1#
#30600
0#
b101100 "
b101100 &
#30650
b1110000 !
b1110000 +
1#
#30700
0#
b101101 "
b101101 &
#30750
b1110001 !
b1110001 +
1#
#30800
0#
b101110 "
b101110 &
#30850
b1110011 !
b1110011 +
1#
#30900
0#
b101111 "
b101111 &
#30950
b1110100 !
b1110100 +
1#
#31000
0#
b110000 "
b110000 &
#31050
b1110101 !
b1110101 +
1#
#31100
0#
b110001 "
b110001 &
#31150
b1110110 !
b1110110 +
1#
#31200
0#
b110010 "
b110010 &
#31250
b1111000 !
b1111000 +
1#
#31300
0#
b110011 "
b110011 &
#31350
b1111001 !
b1111001 +
1#
#31400
0#
b110100 "
b110100 &
#31450
b1111010 !
b1111010 +
1#
#31500
0#
b110101 "
b110101 &
#31550
1#
#31600
0#
b110110 "
b110110 &
#31650
b1111011 !
b1111011 +
1#
#31700
0#
b110111 "
b110111 &
#31750
b1111100 !
b1111100 +
1#
#31800
0#
b111000 "
b111000 &
#31850
b1111101 !
b1111101 +
1#
#31900
0#
b111001 "
b111001 &
#31950
1#
#32000
0#
b111010 "
b111010 &
#32050
b1111110 !
b1111110 +
1#
#32100
0#
b111011 "
b111011 &
#32150
1#
#32200
0#
b111100 "
b111100 &
#32250
1#
#32300
0#
b111101 "
b111101 &
#32350
b1111111 !
b1111111 +
1#
#32400
0#
b111110 "
b111110 &
#32450
1#
#32500
0#
b111111 "
b111111 &
#32550
1#
#32600
0#
b1000000 "
b1000000 &
#32650
1#
#32700
0#
b1000001 "
b1000001 &
#32750
1#
#32800
0#
b1000010 "
b1000010 &
#32850
1#
#32900
0#
b1000011 "
b1000011 &
#32950
1#
#33000
0#
b1000100 "
b1000100 &
#33050
b1111110 !
b1111110 +
1#
#33100
0#
b1000101 "
b1000101 &
#33150
1#
#33200
0#
b1000110 "
b1000110 &
#33250
1#
#33300
0#
b1000111 "
b1000111 &
#33350
b1111101 !
b1111101 +
1#
#33400
0#
b1001000 "
b1001000 &
#33450
1#
#33500
0#
b1001001 "
b1001001 &
#33550
b1111100 !
b1111100 +
1#
#33600
0#
b1001010 "
b1001010 &
#33650
b1111011 !
b1111011 +
1#
#33700
0#
b1001011 "
b1001011 &
#33750
b1111010 !
b1111010 +
1#
#33800
0#
b1001100 "
b1001100 &
#33850
1#
#33900
0#
b1001101 "
b1001101 &
#33950
b1111001 !
b1111001 +
1#
#34000
0#
b1001110 "
b1001110 &
#34050
b1111000 !
b1111000 +
1#
#34100
0#
b1001111 "
b1001111 &
#34150
b1110110 !
b1110110 +
1#
#34200
0#
b1010000 "
b1010000 &
#34250
b1110101 !
b1110101 +
1#
#34300
0#
b1010001 "
b1010001 &
#34350
b1110100 !
b1110100 +
1#
#34400
0#
b1010010 "
b1010010 &
#34450
b1110011 !
b1110011 +
1#
#34500
0#
b1010011 "
b1010011 &
#34550
b1110001 !
b1110001 +
1#
#34600
0#
b1010100 "
b1010100 &
#34650
b1110000 !
b1110000 +
1#
#34700
0#
b1010101 "
b1010101 &
#34750
b1101111 !
b1101111 +
1#
#34800
0#
b1010110 "
b1010110 &
#34850
b1101101 !
b1101101 +
1#
#34900
0#
b1010111 "
b1010111 &
#34950
b1101011 !
b1101011 +
1#
#35000
0#
b1011000 "
b1011000 &
#35050
b1101010 !
b1101010 +
1#
#35100
0#
b1011001 "
b1011001 &
#35150
b1101000 !
b1101000 +
1#
#35200
0#
b1011010 "
b1011010 &
#35250
b1100110 !
b1100110 +
1#
#35300
0#
b1011011 "
b1011011 &
#35350
b1100100 !
b1100100 +
1#
#35400
0#
b1011100 "
b1011100 &
#35450
b1100010 !
b1100010 +
1#
#35500
0#
b1011101 "
b1011101 &
#35550
b1100000 !
b1100000 +
1#
#35600
0#
b1011110 "
b1011110 &
#35650
b1011110 !
b1011110 +
1#
#35700
0#
b1011111 "
b1011111 &
#35750
b1011100 !
b1011100 +
1#
#35800
0#
b1100000 "
b1100000 &
#35850
b1011010 !
b1011010 +
1#
#35900
0#
b1100001 "
b1100001 &
#35950
b1011000 !
b1011000 +
1#
#36000
0#
b1100010 "
b1100010 &
#36050
b1010101 !
b1010101 +
1#
#36100
0#
b1100011 "
b1100011 &
#36150
b1010011 !
b1010011 +
1#
#36200
0#
b1100100 "
b1100100 &
#36250
b1010001 !
b1010001 +
1#
#36300
0#
b1100101 "
b1100101 &
#36350
b1001110 !
b1001110 +
1#
#36400
0#
b1100110 "
b1100110 &
#36450
b1001100 !
b1001100 +
1#
#36500
0#
b1100111 "
b1100111 &
#36550
b1001001 !
b1001001 +
1#
#36600
0#
b1101000 "
b1101000 &
#36650
b1000111 !
b1000111 +
1#
#36700
0#
b1101001 "
b1101001 &
#36750
b1000100 !
b1000100 +
1#
#36800
0#
b1101010 "
b1101010 &
#36850
b1000001 !
b1000001 +
1#
#36900
0#
b1101011 "
b1101011 &
#36950
b111111 !
b111111 +
1#
