chapter4/memory/TestMem.vcd
$date
	Sun Dec 15 14:41:05 2024
$end
$version
	Icarus Verilog
$end
$timescale
	100ps
$end
$scope module TestMem $end
$var wire 8 ! q [7:0] $end
$var reg 8 " a [7:0] $end
$var reg 1 # clk $end
$var reg 8 $ d [7:0] $end
$var reg 1 % we $end
$scope module theMem $end
$var wire 8 & addr [7:0] $end
$var wire 1 # clk $end
$var wire 8 ' din [7:0] $end
$var wire 1 % we $end
$var parameter 32 ( DW $end
$var parameter 32 ) WORDS $end
$var reg 8 * qout [7:0] $end
$upscope $end
$upscope $end
$enddefinitions $end
$comment Show the parameter values. $end
$dumpall
b100000000 )
b1000 (
$end
#0
$dumpvars
bx *
b0 '
b0 &
0%
b0 $
0#
b0 "
bx !
$end
#50
1#
#100
0#
1%
b1 "
b1 &
b10000 $
b10000 '
#150
1#
#200
0#
b11 "
b11 &
b110000 $
b110000 '
#250
1#
#300
0#
b110 "
b110 &
b1100000 $
b1100000 '
#350
1#
#400
0#
b1010 "
b1010 &
b10100000 $
b10100000 '
#450
1#
#500
0#
b1111 "
b1111 &
b11110000 $
b11110000 '
#550
1#
#600
0#
0%
b0 "
b0 &
b0 $
b0 '
#650
1#
#700
0#
b1 "
b1 &
#750
b10000 !
b10000 *
1#
#800
0#
b10 "
b10 &
#850
bx !
bx *
1#
#900
0#
b11 "
b11 &
#950
b110000 !
b110000 *
1#
#1000
0#
b100 "
b100 &
#1050
bx !
bx *
1#
#1100
0#
b101 "
b101 &
#1150
1#
#1200
0#
b110 "
b110 &
#1250
b1100000 !
b1100000 *
1#
#1300
0#
b111 "
b111 &
#1350
bx !
bx *
1#
#1400
0#
b1000 "
b1000 &
#1450
1#
#1500
0#
b1001 "
b1001 &
#1550
1#
#1600
0#
b1010 "
b1010 &
#1650
b10100000 !
b10100000 *
1#
#1700
0#
b1011 "
b1011 &
#1750
bx !
bx *
1#
#1800
0#
b1100 "
b1100 &
#1850
1#
#1900
0#
b1101 "
b1101 &
#1950
1#
#2000
0#
b1110 "
b1110 &
#2050
1#
#2100
0#
b1111 "
b1111 &
#2150
b11110000 !
b11110000 *
1#
#2200
0#
b10000 "
b10000 &
#2250
bx !
bx *
1#
#2300
0#
b10001 "
b10001 &
#2350
1#
#2400
0#
b10010 "
b10010 &
#2450
1#
#2500
0#
b10011 "
b10011 &
#2550
1#
#2600
0#
b10100 "
b10100 &
#2650
1#
#2700
0#
b10101 "
b10101 &
#2750
1#
#2800
0#
b10110 "
b10110 &
#2850
1#
#2900
0#
b10111 "
b10111 &
#2950
1#
#3000
0#
b11000 "
b11000 &
#3050
1#
#3100
0#
b11001 "
b11001 &
#3150
1#
#3200
0#
b11010 "
b11010 &
#3250
1#
#3300
0#
b11011 "
b11011 &
#3350
1#
#3400
0#
b11100 "
b11100 &
#3450
1#
#3500
0#
b11101 "
b11101 &
#3550
1#
#3600
0#
b11110 "
b11110 &
#3650
1#
#3700
0#
b11111 "
b11111 &
#3750
1#
#3800
0#
b100000 "
b100000 &
#3850
1#
#3900
0#
b100001 "
b100001 &
#3950
1#
#4000
0#
b100010 "
b100010 &
