chapter4/accumulator/TestAccu.vcd
$date
	Mon Dec 16 17:31:17 2024
$end
$version
	Icarus Verilog
$end
$timescale
	100ps
$end
$scope module TestAccu $end
$var wire 6 ! accm [5:0] $end
$var wire 16 " acc [15:0] $end
$var parameter 32 # M $end
$var reg 1 $ clk $end
$var reg 1 % clr $end
$var reg 16 & d [15:0] $end
$var reg 6 ' dm [5:0] $end
$var reg 1 ( rst_n $end
$scope module theAcc $end
$var wire 1 $ clk $end
$var wire 1 % clr $end
$var wire 16 ) d [15:0] $end
$var wire 1 * en $end
$var wire 1 ( rst_n $end
$var wire 16 + acc_next [15:0] $end
$var parameter 32 , DW $end
$var reg 16 - acc [15:0] $end
$upscope $end
$scope module theAccM $end
$var wire 1 $ clk $end
$var wire 1 % clr $end
$var wire 6 . d [5:0] $end
$var wire 1 / en $end
$var wire 1 ( rst_n $end
$var wire 6 0 acc_plus [5:0] $end
$var wire 6 1 acc_next [5:0] $end
$var parameter 32 2 M $end
$var reg 6 3 acc [5:0] $end
$upscope $end
$upscope $end
$enddefinitions $end
$comment Show the parameter values. $end
$dumpall
b110010 2
b10000 ,
b110010 #
$end
#0
$dumpvars
bx 3
bx 1
bx 0
1/
b0 .
bx -
bx +
1*
b0 )
0(
b0 '
b0 &
0%
0$
bx "
bx !
$end
#50
b0 1
b0 +
b0 "
b0 -
b0 0
b0 !
b0 3
1$
#100
b1 1
0$
b1 0
b1 '
b1 .
b1 +
b1 &
b1 )
#150
1$
#200
b10 1
0$
b10 0
b10 '
b10 .
b10 +
b10 &
b10 )
#250
1$
#300
b11 1
0$
b11 0
b11 '
b11 .
b11 +
b11 &
b11 )
#350
b110 1
b110 0
b11 !
b11 3
b110 +
b11 "
b11 -
1$
1(
#400
b111 1
0$
b111 0
b100 '
b100 .
b111 +
b100 &
b100 )
#450
b1011 1
b1011 +
b111 "
b111 -
b1011 0
b111 !
b111 3
1$
#500
b1100 1
0$
b1100 0
b101 '
b101 .
b1100 +
b101 &
b101 )
#550
b10001 1
b10001 0
b1100 !
b1100 3
b10001 +
b1100 "
b1100 -
1$
#600
b10010 1
0$
b10010 0
b110 '
b110 .
b10010 +
b110 &
b110 )
#650
b11000 1
b11000 +
b10010 "
b10010 -
b11000 0
b10010 !
b10010 3
1$
#700
b11001 1
0$
b11001 0
b111 '
b111 .
b11001 +
b111 &
b111 )
#750
b100000 1
b100000 0
b11001 !
b11001 3
b100000 +
b11001 "
b11001 -
1$
#800
b100001 1
0$
b100001 0
b1000 '
b1000 .
b100001 +
b1000 &
b1000 )
#850
b101001 1
b101001 +
b100001 "
b100001 -
b101001 0
b100001 !
b100001 3
1$
#900
b101010 1
0$
b101010 0
b1001 '
b1001 .
b101010 +
b1001 &
b1001 )
#950
b1 1
b110011 0
b101010 !
b101010 3
b110011 +
b101010 "
b101010 -
1$
#1000
b10 1
0$
b110100 0
b1010 '
b1010 .
b110100 +
b1010 &
b1010 )
#1050
b1100 1
b111110 +
b110100 "
b110100 -
b1100 0
b10 !
b10 3
1$
#1100
b1101 1
0$
b1101 0
b1011 '
b1011 .
b111111 +
b1011 &
b1011 )
#1150
b11000 1
b11000 0
b1101 !
b1101 3
b1001010 +
b111111 "
b111111 -
1$
#1200
b11001 1
0$
b11001 0
b1100 '
b1100 .
b1001011 +
b1100 &
b1100 )
#1250
b100101 1
b1010111 +
b1001011 "
b1001011 -
b100101 0
b11001 !
b11001 3
1$
#1300
b100110 1
0$
b100110 0
b1101 '
b1101 .
b1011000 +
b1101 &
b1101 )
#1350
b1 1
b110011 0
b100110 !
b100110 3
b1100101 +
b1011000 "
b1011000 -
1$
#1400
b10 1
0$
b110100 0
b1110 '
b1110 .
b1100110 +
b1110 &
b1110 )
#1450
b10000 1
b1110100 +
b1100110 "
b1100110 -
b10000 0
b10 !
b10 3
1$
#1500
b10001 1
0$
b10001 0
b1111 '
b1111 .
b1110101 +
b1111 &
b1111 )
#1550
b100000 1
b100000 0
b10001 !
b10001 3
b10000100 +
b1110101 "
b1110101 -
1$
#1600
b100001 1
0$
b100001 0
b10000 '
b10000 .
b10000101 +
b10000 &
b10000 )
#1650
b110001 1
b10010101 +
b10000101 "
b10000101 -
b110001 0
b100001 !
b100001 3
1$
#1700
b0 1
0$
b110010 0
b10001 '
b10001 .
b10010110 +
b10001 &
b10001 )
#1750
b10001 1
b10001 0
b0 !
b0 3
b10100111 +
b10010110 "
b10010110 -
1$
#1800
b10010 1
0$
b10010 0
b10010 '
b10010 .
b10101000 +
b10010 &
b10010 )
#1850
b100100 1
b10111010 +
b10101000 "
b10101000 -
b100100 0
b10010 !
b10010 3
1$
#1900
b100101 1
0$
b100101 0
b10011 '
b10011 .
b10111011 +
b10011 &
b10011 )
#1950
b110 1
b111000 0
b100101 !
b100101 3
b11001110 +
b10111011 "
b10111011 -
1$
#2000
b111 1
0$
b111001 0
b10100 '
b10100 .
b11001111 +
b10100 &
b10100 )
#2050
b11011 1
b11100011 +
b11001111 "
b11001111 -
b11011 0
b111 !
b111 3
1$
#2100
b11100 1
0$
b11100 0
b10101 '
b10101 .
b11100100 +
b10101 &
b10101 )
#2150
b110001 1
b110001 0
b11100 !
b11100 3
b11111001 +
b11100100 "
b11100100 -
1$
#2200
b0 1
0$
b110010 0
b10110 '
b10110 .
b11111010 +
b10110 &
b10110 )
#2250
b10110 1
b100010000 +
b11111010 "
b11111010 -
b10110 0
b0 !
b0 3
1$
#2300
b10111 1
0$
b10111 0
b10111 '
b10111 .
b100010001 +
b10111 &
b10111 )
#2350
b101110 1
b101110 0
b10111 !
b10111 3
b100101000 +
b100010001 "
b100010001 -
1$
#2400
b101111 1
0$
b101111 0
b11000 '
b11000 .
b100101001 +
b11000 &
b11000 )
#2450
b10101 1
b101000001 +
b100101001 "
b100101001 -
b111 0
b101111 !
b101111 3
1$
#2500
b10110 1
0$
b1000 0
b11001 '
b11001 .
b101000010 +
b11001 &
b11001 )
#2550
b101111 1
b101111 0
b10110 !
b10110 3
b101011011 +
b101000010 "
b101000010 -
1$
#2600
b110000 1
0$
b110000 0
b11010 '
b11010 .
b101011100 +
b11010 &
b11010 )
#2650
b11000 1
b101110110 +
b101011100 "
b101011100 -
b1010 0
b110000 !
b110000 3
1$
#2700
b11001 1
0$
b1011 0
b11011 '
b11011 .
b101110111 +
b11011 &
b11011 )
#2750
b10 1
b110100 0
b11001 !
b11001 3
b110010010 +
b101110111 "
b101110111 -
1$
#2800
b11 1
0$
b110101 0
b11100 '
b11100 .
b110010011 +
b11100 &
b11100 )
#2850
b11111 1
b110101111 +
b110010011 "
b110010011 -
b11111 0
b11 !
b11 3
1$
#2900
b100000 1
0$
b100000 0
b11101 '
b11101 .
b110110000 +
b11101 &
b11101 )
#2950
b1011 1
b111101 0
b100000 !
b100000 3
b111001101 +
b110110000 "
b110110000 -
1$
#3000
b1100 1
0$
b111110 0
b11110 '
b11110 .
b111001110 +
b11110 &
b11110 )
#3050
b101010 1
b111101100 +
b111001110 "
b111001110 -
b101010 0
b1100 !
b1100 3
1$
#3100
b101011 1
0$
b101011 0
b11111 '
b11111 .
b111101101 +
b11111 &
b11111 )
#3150
b11000 1
b1010 0
b101011 !
b101011 3
b1000001100 +
b111101101 "
b111101101 -
1$
#3200
b11001 1
0$
b1011 0
b100000 '
b100000 .
b1000001101 +
b100000 &
b100000 )
#3250
b111 1
b1000101101 +
b1000001101 "
b1000001101 -
b111001 0
b11001 !
b11001 3
1$
#3300
b1000 1
0$
b111010 0
b100001 '
b100001 .
b1000101110 +
b100001 &
b100001 )
#3350
b101001 1
b101001 0
b1000 !
b1000 3
b1001001111 +
b1000101110 "
b1000101110 -
1$
#3400
b101010 1
0$
b101010 0
b100010 '
b100010 .
b1001010000 +
b100010 &
b100010 )
#3450
b11010 1
b1001110010 +
b1001010000 "
b1001010000 -
b1100 0
b101010 !
b101010 3
1$
#3500
b11011 1
0$
b1101 0
b100011 '
b100011 .
b1001110011 +
b100011 &
b100011 )
#3550
b1100 1
b111110 0
b11011 !
b11011 3
b1010010110 +
b1001110011 "
b1001110011 -
1$
#3600
b1101 1
0$
b111111 0
b100100 '
b100100 .
b1010010111 +
b100100 &
b100100 )
#3650
b110001 1
b1010111011 +
b1010010111 "
b1010010111 -
b110001 0
b1101 !
b1101 3
1$
#3700
b0 1
0$
b110010 0
b100101 '
b100101 .
b1010111100 +
b100101 &
b100101 )
#3750
b100101 1
b100101 0
b0 !
b0 3
b1011100001 +
b1010111100 "
b1010111100 -
1$
#3800
b100110 1
0$
b100110 0
b100110 '
b100110 .
b1011100010 +
b100110 &
b100110 )
#3850
b11010 1
b1100001000 +
b1011100010 "
b1011100010 -
b1100 0
b100110 !
b100110 3
1$
#3900
b11011 1
0$
b1101 0
b100111 '
b100111 .
b1100001001 +
b100111 &
b100111 )
#3950
b10000 1
b10 0
b11011 !
b11011 3
b1100110000 +
b1100001001 "
b1100001001 -
1$
#4000
b10001 1
0$
b11 0
b101000 '
b101000 .
b1100110001 +
b101000 &
b101000 )
