chapter4/delay_chain_mem/TestDelayChainMem.vcd
$date
	Mon Dec 16 17:33:22 2024
$end
$version
	Icarus Verilog
$end
$timescale
	100ps
$end
$scope module TestDelayChainMem $end
$var wire 8 ! y_unopt [7:0] $end
$var wire 8 " y [7:0] $end
$var reg 8 # a [7:0] $end
$var reg 1 $ clk $end
$var reg 1 % en $end
$var reg 1 & rst_n $end
$scope module dcmem $end
$var wire 1 $ clk $end
$var wire 8 ' din [7:0] $end
$var wire 1 % en $end
$var wire 1 & rst_n $end
$var wire 8 ( dout [7:0] $end
$var parameter 32 ) DW $end
$var parameter 32 * LEN $end
$scope begin g_delay $end
$var wire 8 + ram_out [7:0] $end
$var wire 3 , addr_next [2:0] $end
$var reg 3 - addr [2:0] $end
$var reg 1 . en_dly $end
$var reg 8 / ram_out_dly [7:0] $end
$scope module theRam $end
$var wire 3 0 addr [2:0] $end
$var wire 1 $ clk $end
$var wire 8 1 din [7:0] $end
$var wire 1 % we $end
$var parameter 32 2 DW $end
$var parameter 32 3 WORDS $end
$var reg 8 4 qout [7:0] $end
$var reg 40 5 ram [39:0] $end
$upscope $end
$upscope $end
$upscope $end
$scope module dcmempre $end
$var wire 1 $ clk $end
$var wire 8 6 din [7:0] $end
$var wire 1 % en $end
$var wire 1 & rst_n $end
$var wire 8 7 dout [7:0] $end
$var parameter 32 8 DW $end
$var parameter 32 9 LEN $end
$scope begin g_delay $end
$var wire 3 : addr_next [2:0] $end
$var reg 3 ; addr [2:0] $end
$scope module theRam $end
$var wire 3 < addr [2:0] $end
$var wire 1 $ clk $end
$var wire 8 = din [7:0] $end
$var wire 1 % we $end
$var parameter 32 > DW $end
$var parameter 32 ? WORDS $end
$var reg 8 @ qout [7:0] $end
$var reg 40 A ram [39:0] $end
$upscope $end
$upscope $end
$upscope $end
$upscope $end
$enddefinitions $end
$comment Show the parameter values. $end
$dumpall
b101 ?
b1000 >
b101 9
b1000 8
b101 3
b1000 2
b101 *
b1000 )
$end
#0
$dumpvars
bx A
bx @
bx =
bx <
bx ;
bx :
bx 7
bx 6
bx 5
bx 4
bx 1
bx 0
bx /
x.
bx -
bx ,
bx +
bx (
bx '
0&
0%
0$
bx #
bx "
bx !
$end
#50
b1 :
b0 "
b0 (
b1 ,
b0 ;
b0 <
0.
b0 /
b0 -
b0 0
1$
#100
0$
b100100 #
b100100 '
b100100 1
b100100 6
b100100 =
#150
1$
#200
0$
b10000001 #
b10000001 '
b10000001 1
b10000001 6
b10000001 =
#250
1$
#300
0$
b1001 #
b1001 '
b1001 1
b1001 6
b1001 =
1%
#350
b10 ,
bx "
bx (
b10 :
bx00001001 5
bx00001001 A
b1 -
b1 0
1.
b1 ;
b1 <
1$
1&
#400
0$
b1100011 #
b1100011 '
b1100011 1
b1100011 6
b1100011 =
#450
b11 :
b11 ,
bx0110001100001001 A
bx0110001100001001 5
b10 ;
b10 <
bx /
b10 -
b10 0
1$
#500
0$
b1101 #
b1101 '
b1101 1
b1101 6
b1101 =
#550
b0 ,
b0 :
bx000011010110001100001001 5
bx000011010110001100001001 A
b11 -
b11 0
b11 ;
b11 <
1$
#600
0$
b10001101 #
b10001101 '
b10001101 1
b10001101 6
b10001101 =
#650
b1 :
b1 ,
bx10001101000011010110001100001001 A
bx10001101000011010110001100001001 5
b0 ;
b0 <
b0 -
b0 0
1$
#700
0$
b1100101 #
b1100101 '
b1100101 1
b1100101 6
b1100101 =
#750
b1001 "
b1001 (
b10 ,
b10 :
b1001 +
b1001 4
bx10001101000011010110001101100101 5
b1001 !
b1001 7
b1001 @
bx10001101000011010110001101100101 A
b1 -
b1 0
b1 ;
b1 <
1$
#800
0$
b10010 #
b10010 '
b10010 1
b10010 6
b10010 =
#850
b1100011 "
b1100011 (
b11 :
b11 ,
bx10001101000011010001001001100101 A
b1100011 !
b1100011 7
b1100011 @
bx10001101000011010001001001100101 5
b1100011 +
b1100011 4
b10 ;
b10 <
b1001 /
b10 -
b10 0
1$
#900
0$
b1 #
b1 '
b1 1
b1 6
b1 =
#950
b1101 "
b1101 (
b0 ,
b0 :
b1101 +
b1101 4
bx10001101000000010001001001100101 5
b1101 !
b1101 7
b1101 @
bx10001101000000010001001001100101 A
b11 -
b11 0
b1100011 /
b11 ;
b11 <
1$
#1000
0$
b1101 #
b1101 '
b1101 1
b1101 6
b1101 =
#1050
b1 :
b1 ,
b10001101 "
b10001101 (
bx00001101000000010001001001100101 A
b10001101 !
b10001101 7
b10001101 @
bx00001101000000010001001001100101 5
b10001101 +
b10001101 4
b0 ;
b0 <
b1101 /
b0 -
b0 0
1$
#1100
0$
b1110110 #
b1110110 '
b1110110 1
b1110110 6
b1110110 =
#1150
b1100101 "
b1100101 (
b10 ,
b10 :
b1100101 +
b1100101 4
bx00001101000000010001001001110110 5
b1100101 !
b1100101 7
b1100101 @
bx00001101000000010001001001110110 A
b1 -
b1 0
b10001101 /
b1 ;
b1 <
1$
#1200
0$
b111101 #
b111101 '
b111101 1
b111101 6
b111101 =
#1250
b10010 "
b10010 (
b11 :
b11 ,
bx00001101000000010011110101110110 A
b10010 !
b10010 7
b10010 @
bx00001101000000010011110101110110 5
b10010 +
b10010 4
b10 ;
b10 <
b1100101 /
b10 -
b10 0
1$
#1300
0$
b11101101 #
b11101101 '
b11101101 1
b11101101 6
b11101101 =
#1350
b1 "
b1 (
b0 ,
b0 :
b1 +
b1 4
bx00001101111011010011110101110110 5
b1 !
b1 7
b1 @
bx00001101111011010011110101110110 A
b11 -
b11 0
b10010 /
b11 ;
b11 <
1$
#1400
0$
b10001100 #
b10001100 '
b10001100 1
b10001100 6
b10001100 =
#1450
b1 :
b1 ,
b1101 "
b1101 (
bx10001100111011010011110101110110 A
b1101 !
b1101 7
b1101 @
bx10001100111011010011110101110110 5
b1101 +
b1101 4
b0 ;
b0 <
b1 /
b0 -
b0 0
1$
#1500
0$
b11111001 #
b11111001 '
b11111001 1
b11111001 6
b11111001 =
0%
#1550
b1110110 +
b1110110 4
b1110110 !
b1110110 7
b1110110 @
b1101 /
0.
1$
#1600
0$
b11000110 #
b11000110 '
b11000110 1
b11000110 6
b11000110 =
#1650
1$
#1700
0$
b11000101 #
b11000101 '
b11000101 1
b11000101 6
b11000101 =
1%
#1750
b10 ,
b1110110 "
b1110110 (
b10 :
bx10001100111011010011110111000101 5
bx10001100111011010011110111000101 A
b1 -
b1 0
1.
b1 ;
b1 <
1$
#1800
0$
b10101010 #
b10101010 '
b10101010 1
b10101010 6
b10101010 =
#1850
b111101 "
b111101 (
b11 :
b11 ,
bx10001100111011011010101011000101 A
b111101 !
b111101 7
b111101 @
bx10001100111011011010101011000101 5
b111101 +
b111101 4
b10 ;
b10 <
b1110110 /
b10 -
b10 0
1$
#1900
0$
b11100101 #
b11100101 '
b11100101 1
b11100101 6
b11100101 =
#1950
b11101101 "
b11101101 (
b0 ,
b0 :
b11101101 +
b11101101 4
bx10001100111001011010101011000101 5
b11101101 !
b11101101 7
b11101101 @
bx10001100111001011010101011000101 A
b11 -
b11 0
b111101 /
b11 ;
b11 <
1$
#2000
0$
b1110111 #
b1110111 '
b1110111 1
b1110111 6
b1110111 =
#2050
b1 :
b1 ,
b10001100 "
b10001100 (
bx01110111111001011010101011000101 A
b10001100 !
b10001100 7
b10001100 @
bx01110111111001011010101011000101 5
b10001100 +
b10001100 4
b0 ;
b0 <
b11101101 /
b0 -
b0 0
1$
#2100
0$
b10010 #
b10010 '
b10010 1
b10010 6
b10010 =
#2150
b11000101 "
b11000101 (
b10 ,
b10 :
b11000101 +
b11000101 4
bx01110111111001011010101000010010 5
b11000101 !
b11000101 7
b11000101 @
bx01110111111001011010101000010010 A
b1 -
b1 0
b10001100 /
b1 ;
b1 <
1$
#2200
0$
b10001111 #
b10001111 '
b10001111 1
b10001111 6
b10001111 =
#2250
b10101010 "
b10101010 (
b11 :
b11 ,
bx01110111111001011000111100010010 A
b10101010 !
b10101010 7
b10101010 @
bx01110111111001011000111100010010 5
b10101010 +
b10101010 4
b10 ;
b10 <
b11000101 /
b10 -
b10 0
1$
#2300
0$
b11110010 #
b11110010 '
b11110010 1
b11110010 6
b11110010 =
#2350
b11100101 "
b11100101 (
b0 ,
b0 :
b11100101 +
b11100101 4
bx01110111111100101000111100010010 5
b11100101 !
b11100101 7
b11100101 @
bx01110111111100101000111100010010 A
b11 -
b11 0
b10101010 /
b11 ;
b11 <
1$
#2400
0$
b11001110 #
b11001110 '
b11001110 1
b11001110 6
b11001110 =
#2450
b1 :
b1 ,
b1110111 "
b1110111 (
bx11001110111100101000111100010010 A
b1110111 !
b1110111 7
b1110111 @
bx11001110111100101000111100010010 5
b1110111 +
b1110111 4
b0 ;
b0 <
b11100101 /
b0 -
b0 0
1$
#2500
0$
b11101000 #
b11101000 '
b11101000 1
b11101000 6
b11101000 =
#2550
b10010 "
b10010 (
b10 ,
b10 :
b10010 +
b10010 4
bx11001110111100101000111111101000 5
b10010 !
b10010 7
b10010 @
bx11001110111100101000111111101000 A
b1 -
b1 0
b1110111 /
b1 ;
b1 <
1$
#2600
0$
b11000101 #
b11000101 '
b11000101 1
b11000101 6
b11000101 =
#2650
b10001111 "
b10001111 (
b11 :
b11 ,
bx11001110111100101100010111101000 A
b10001111 !
b10001111 7
b10001111 @
bx11001110111100101100010111101000 5
b10001111 +
b10001111 4
b10 ;
b10 <
b10010 /
b10 -
b10 0
1$
#2700
0$
b1011100 #
b1011100 '
b1011100 1
b1011100 6
b1011100 =
#2750
b11110010 "
b11110010 (
b0 ,
b0 :
b11110010 +
b11110010 4
bx11001110010111001100010111101000 5
b11110010 !
b11110010 7
b11110010 @
bx11001110010111001100010111101000 A
b11 -
b11 0
b10001111 /
b11 ;
b11 <
1$
#2800
0$
b10111101 #
b10111101 '
b10111101 1
b10111101 6
b10111101 =
#2850
b1 :
b1 ,
b11001110 "
b11001110 (
bx10111101010111001100010111101000 A
b11001110 !
b11001110 7
b11001110 @
bx10111101010111001100010111101000 5
b11001110 +
b11001110 4
b0 ;
b0 <
b11110010 /
b0 -
b0 0
1$
#2900
0$
b101101 #
b101101 '
b101101 1
b101101 6
b101101 =
#2950
b11101000 "
b11101000 (
b10 ,
b10 :
b11101000 +
b11101000 4
bx10111101010111001100010100101101 5
b11101000 !
b11101000 7
b11101000 @
bx10111101010111001100010100101101 A
b1 -
b1 0
b11001110 /
b1 ;
b1 <
1$
#3000
0$
b1100101 #
b1100101 '
b1100101 1
b1100101 6
b1100101 =
#3050
b11000101 "
b11000101 (
b11 :
b11 ,
bx10111101010111000110010100101101 A
b11000101 !
b11000101 7
b11000101 @
bx10111101010111000110010100101101 5
b11000101 +
b11000101 4
b10 ;
b10 <
b11101000 /
b10 -
b10 0
1$
#3100
0$
b1100011 #
b1100011 '
b1100011 1
b1100011 6
b1100011 =
#3150
b1011100 "
b1011100 (
b0 ,
b0 :
b1011100 +
b1011100 4
bx10111101011000110110010100101101 5
b1011100 !
b1011100 7
b1011100 @
bx10111101011000110110010100101101 A
b11 -
b11 0
b11000101 /
b11 ;
b11 <
1$
#3200
0$
b1010 #
b1010 '
b1010 1
b1010 6
b1010 =
#3250
b1 :
b1 ,
b10111101 "
b10111101 (
bx00001010011000110110010100101101 A
b10111101 !
b10111101 7
b10111101 @
bx00001010011000110110010100101101 5
b10111101 +
b10111101 4
b0 ;
b0 <
b1011100 /
b0 -
b0 0
1$
#3300
0$
b10000000 #
b10000000 '
b10000000 1
b10000000 6
b10000000 =
#3350
b101101 "
b101101 (
b10 ,
b10 :
b101101 +
b101101 4
bx00001010011000110110010110000000 5
b101101 !
b101101 7
b101101 @
bx00001010011000110110010110000000 A
b1 -
b1 0
b10111101 /
b1 ;
b1 <
1$
#3400
0$
b100000 #
b100000 '
b100000 1
b100000 6
b100000 =
#3450
b1100101 "
b1100101 (
b11 :
b11 ,
bx00001010011000110010000010000000 A
b1100101 !
b1100101 7
b1100101 @
bx00001010011000110010000010000000 5
b1100101 +
b1100101 4
b10 ;
b10 <
b101101 /
b10 -
b10 0
1$
#3500
0$
b10101010 #
b10101010 '
b10101010 1
b10101010 6
b10101010 =
#3550
b1100011 "
b1100011 (
b0 ,
b0 :
b1100011 +
b1100011 4
bx00001010101010100010000010000000 5
b1100011 !
b1100011 7
b1100011 @
bx00001010101010100010000010000000 A
b11 -
b11 0
b1100101 /
b11 ;
b11 <
1$
#3600
0$
b10011101 #
b10011101 '
b10011101 1
b10011101 6
b10011101 =
#3650
b1 :
b1 ,
b1010 "
b1010 (
bx10011101101010100010000010000000 A
b1010 !
b1010 7
b1010 @
bx10011101101010100010000010000000 5
b1010 +
b1010 4
b0 ;
b0 <
b1100011 /
b0 -
b0 0
1$
#3700
0$
b10010110 #
b10010110 '
b10010110 1
b10010110 6
b10010110 =
#3750
b10000000 "
b10000000 (
b10 ,
b10 :
b10000000 +
b10000000 4
bx10011101101010100010000010010110 5
b10000000 !
b10000000 7
b10000000 @
bx10011101101010100010000010010110 A
b1 -
b1 0
b1010 /
b1 ;
b1 <
1$
#3800
0$
b10011 #
b10011 '
b10011 1
b10011 6
b10011 =
#3850
b100000 "
b100000 (
b11 :
b11 ,
bx10011101101010100001001110010110 A
b100000 !
b100000 7
b100000 @
bx10011101101010100001001110010110 5
b100000 +
b100000 4
b10 ;
b10 <
b10000000 /
b10 -
b10 0
1$
#3900
0$
b1101 #
b1101 '
b1101 1
b1101 6
b1101 =
#3950
b10101010 "
b10101010 (
b0 ,
b0 :
b10101010 +
b10101010 4
bx10011101000011010001001110010110 5
b10101010 !
b10101010 7
b10101010 @
bx10011101000011010001001110010110 A
b11 -
b11 0
b100000 /
b11 ;
b11 <
1$
