chapter4/delay_chain_mem/TestRecfgDelayChain.vcd
$date
	Mon Dec 16 17:44:07 2024
$end
$version
	Icarus Verilog
$end
$timescale
	100ps
$end
$scope module TestRecfgDelayChain $end
$var wire 8 ! y [7:0] $end
$var parameter 32 " DW $end
$var parameter 32 # MAXLEN $end
$var reg 8 $ a [7:0] $end
$var reg 1 % clk $end
$var reg 1 & en $end
$var reg 5 ' len [4:0] $end
$var reg 1 ( rst_n $end
$var integer 32 ) en_cnt [31:0] $end
$var integer 32 * seed_en [31:0] $end
$var integer 32 + seed_len [31:0] $end
$scope module dc $end
$var wire 1 % clk $end
$var wire 8 , din [7:0] $end
$var wire 1 & en $end
$var wire 5 - length [4:0] $end
$var wire 1 ( rst_n $end
$var wire 8 . ram_out [7:0] $end
$var wire 8 / dout [7:0] $end
$var wire 4 0 addr_next [3:0] $end
$var parameter 32 1 DW $end
$var parameter 32 2 MAX_LEN $end
$var parameter 32 3 MIN_LEN $end
$var reg 4 4 addr [3:0] $end
$var reg 8 5 din_dly [7:0] $end
$var reg 1 6 en_dly $end
$var reg 8 7 ram_out_dly [7:0] $end
$scope begin g_case_3 $end
$upscope $end
$scope module theRam $end
$var wire 4 8 addr [3:0] $end
$var wire 1 % clk $end
$var wire 8 9 din [7:0] $end
$var wire 1 & we $end
$var parameter 32 : DW $end
$var parameter 32 ; WORDS $end
$var reg 8 < qout [7:0] $end
$var reg 128 = ram [127:0] $end
$upscope $end
$upscope $end
$upscope $end
$enddefinitions $end
$comment Show the parameter values. $end
$dumpall
b10000 ;
b1000 :
b0 3
b10000 2
b1000 1
b10000 #
b1000 "
$end
#0
$dumpvars
bx =
bx <
bx 9
bx 8
bx 7
x6
bx 5
bx 4
bx 0
bx /
bx .
b0 -
bx ,
b10001000011110 +
b1001110011101101000 *
b0 )
0(
b0 '
0&
0%
bx $
bx !
$end
#50
b1 0
06
b0 5
b0 7
b0 4
b0 8
1%
#100
0%
#150
1%
#200
0%
#250
b101111001101000000110101110110 *
b10001011111100110000111011001 +
1%
#300
0%
#350
1%
1(
#400
0%
#450
b100100 !
b100100 /
b1 )
b100100 $
b100100 ,
b100100 9
b10110000110111001100110110100 *
1&
1%
#500
0%
#550
b10000001 !
b10000001 /
b10 0
b10000001 $
b10000001 ,
b10000001 9
b10 )
bx00100100 =
b1 4
b1 8
b100100 5
16
1%
#600
0%
#650
b1001 !
b1001 /
b11 0
bx1000000100100100 =
b11 )
b1001 $
b1001 ,
b1001 9
b10000001 5
bx 7
b10 4
b10 8
b10000111010001000110100110110111 *
1%
#700
0%
#750
b1100011 !
b1100011 /
b100 0
b1100011 $
b1100011 ,
b1100011 9
b100 )
bx000010011000000100100100 =
b11 4
b11 8
b1001 5
1%
#800
0%
#850
b1101 !
b1101 /
b101 0
bx01100011000010011000000100100100 =
b101 )
b1101 $
b1101 ,
b1101 9
b1100011 5
b100 4
b100 8
1%
#900
0%
#950
b10001101 !
b10001101 /
b110 0
b10001101 $
b10001101 ,
b10001101 9
b110 )
bx0000110101100011000010011000000100100100 =
b101 4
b101 8
b1101 5
1%
#1000
0%
#1050
b1100101 !
b1100101 /
b111 0
bx100011010000110101100011000010011000000100100100 =
b111 )
b1100101 $
b1100101 ,
b1100101 9
b10001101 5
b110 4
b110 8
1%
#1100
0%
#1150
b10010 !
b10010 /
b1000 0
b10010 $
b10010 ,
b10010 9
b1000 )
bx01100101100011010000110101100011000010011000000100100100 =
b111 4
b111 8
b1100101 5
1%
#1200
0%
#1250
b1 !
b1 /
b1001 0
bx0001001001100101100011010000110101100011000010011000000100100100 =
b1001 )
b1 $
b1 ,
b1 9
b10010 5
b1000 4
b1000 8
1%
#1300
0%
#1350
b1101 !
b1101 /
b1010 0
b1101 $
b1101 ,
b1101 9
b1010 )
bx000000010001001001100101100011010000110101100011000010011000000100100100 =
b1001 4
b1001 8
b1 5
b10001101100110000101011000011101 *
1%
#1400
0%
#1450
b1110110 !
b1110110 /
b1011 0
bx00001101000000010001001001100101100011010000110101100011000010011000000100100100 =
b1011 )
b1110110 $
b1110110 ,
b1110110 9
b1101 5
b1010 4
b1010 8
1%
#1500
0%
#1550
b111101 !
b111101 /
b1100 0
b111101 $
b111101 ,
b111101 9
b1100 )
bx0111011000001101000000010001001001100101100011010000110101100011000010011000000100100100 =
b1011 4
b1011 8
b1110110 5
b101001100100111000100011000 *
1%
#1600
0%
#1650
b11101101 !
b11101101 /
b1101 0
bx001111010111011000001101000000010001001001100101100011010000110101100011000010011000000100100100 =
b1101 )
b11101101 $
b11101101 ,
b11101101 9
b111101 5
b1100 4
b1100 8
1%
#1700
0%
#1750
b10001100 !
b10001100 /
b1110 0
b10001100 $
b10001100 ,
b10001100 9
b1110 )
bx11101101001111010111011000001101000000010001001001100101100011010000110101100011000010011000000100100100 =
b1101 4
b1101 8
b11101101 5
1%
#1800
0%
#1850
b11111001 !
b11111001 /
b1111 0
bx1000110011101101001111010111011000001101000000010001001001100101100011010000110101100011000010011000000100100100 =
b1111 )
b11111001 $
b11111001 ,
b11111001 9
b10001100 5
b1110 4
b1110 8
b10010101011101100011101010100110 *
1%
#1900
0%
#1950
b11000110 !
b11000110 /
b0 0
b11000110 $
b11000110 ,
b11000110 9
b10000 )
bx111110011000110011101101001111010111011000001101000000010001001001100101100011010000110101100011000010011000000100100100 =
b1111 4
b1111 8
b11111001 5
1%
#2000
0%
#2050
b11000101 !
b11000101 /
b1 0
b11000110111110011000110011101101001111010111011000001101000000010001001001100101100011010000110101100011000010011000000100100100 =
b10001 )
b11000101 $
b11000101 ,
b11000101 9
b11000110 5
b0 4
b0 8
b110010000101000110001000010101 *
1%
#2100
0%
#2150
b10101010 !
b10101010 /
b10 0
b10101010 $
b10101010 ,
b10101010 9
b10010 )
b100100 .
b100100 <
b11000110111110011000110011101101001111010111011000001101000000010001001001100101100011010000110101100011000010011000000111000101 =
b1 4
b1 8
b11000101 5
1%
#2200
0%
#2250
b11100101 !
b11100101 /
b11 0
b11000110111110011000110011101101001111010111011000001101000000010001001001100101100011010000110101100011000010011010101011000101 =
b10000001 .
b10000001 <
b10011 )
b11100101 $
b11100101 ,
b11100101 9
b10101010 5
b100100 7
b10 4
b10 8
1%
#2300
0%
#2350
b1110111 !
b1110111 /
b100 0
b1110111 $
b1110111 ,
b1110111 9
b10100 )
b1001 .
b1001 <
b11000110111110011000110011101101001111010111011000001101000000010001001001100101100011010000110101100011111001011010101011000101 =
b11 4
b11 8
b10000001 7
b11100101 5
b1011000110011101100111001110000 *
1%
#2400
0%
#2450
b10010 !
b10010 /
b101 0
b11000110111110011000110011101101001111010111011000001101000000010001001001100101100011010000110101110111111001011010101011000101 =
b1100011 .
b1100011 <
b10101 )
b10010 $
b10010 ,
b10010 9
b1110111 5
b1001 7
b100 4
b100 8
1%
#2500
0%
#2550
b10001111 !
b10001111 /
b110 0
b10001111 $
b10001111 ,
b10001111 9
b10110 )
b1101 .
b1101 <
b11000110111110011000110011101101001111010111011000001101000000010001001001100101100011010001001001110111111001011010101011000101 =
b101 4
b101 8
b1100011 7
b10010 5
1%
#2600
0%
#2650
b11110010 !
b11110010 /
b111 0
b11000110111110011000110011101101001111010111011000001101000000010001001001100101100011110001001001110111111001011010101011000101 =
b10001101 .
b10001101 <
b10111 )
b11110010 $
b11110010 ,
b11110010 9
b10001111 5
b1101 7
b110 4
b110 8
b1000100110001000000010100111100 *
1%
#2700
0%
#2750
b11001110 !
b11001110 /
b1000 0
b11001110 $
b11001110 ,
b11001110 9
b11000 )
b1100101 .
b1100101 <
b11000110111110011000110011101101001111010111011000001101000000010001001011110010100011110001001001110111111001011010101011000101 =
b111 4
b111 8
b10001101 7
b11110010 5
1%
#2800
0%
#2850
b11101000 !
b11101000 /
b1001 0
b11000110111110011000110011101101001111010111011000001101000000011100111011110010100011110001001001110111111001011010101011000101 =
b10010 .
b10010 <
b11001 )
b11101000 $
b11101000 ,
b11101000 9
b11001110 5
b1100101 7
b1000 4
b1000 8
1%
#2900
0%
#2950
b11000101 !
b11000101 /
b1010 0
b11000101 $
b11000101 ,
b11000101 9
b11010 )
b1 .
b1 <
b11000110111110011000110011101101001111010111011000001101111010001100111011110010100011110001001001110111111001011010101011000101 =
b1001 4
b1001 8
b10010 7
b11101000 5
1%
#3000
0%
#3050
b1011100 !
b1011100 /
b1011 0
b11000110111110011000110011101101001111010111011011000101111010001100111011110010100011110001001001110111111001011010101011000101 =
b1101 .
b1101 <
b11011 )
b1011100 $
b1011100 ,
b1011100 9
b11000101 5
b1 7
b1010 4
b1010 8
b1010011110000011110100001101 *
1%
#3100
0%
#3150
b10111101 !
b10111101 /
b1100 0
b10111101 $
b10111101 ,
b10111101 9
b11100 )
b1110110 .
b1110110 <
b11000110111110011000110011101101001111010101110011000101111010001100111011110010100011110001001001110111111001011010101011000101 =
b1011 4
b1011 8
b1101 7
b1011100 5
b100011000001110110011011001000 *
1%
#3200
0%
#3250
b101101 !
b101101 /
b1101 0
b11000110111110011000110011101101101111010101110011000101111010001100111011110010100011110001001001110111111001011010101011000101 =
b111101 .
b111101 <
b11101 )
b101101 $
b101101 ,
b101101 9
b10111101 5
b1110110 7
b1100 4
b1100 8
1%
#3300
0%
#3350
b1100101 !
b1100101 /
b1110 0
b1100101 $
b1100101 ,
b1100101 9
b11110 )
b11101101 .
b11101101 <
b11000110111110011000110000101101101111010101110011000101111010001100111011110010100011110001001001110111111001011010101011000101 =
b1101 4
b1101 8
b111101 7
b101101 5
1%
#3400
0%
#3450
b1100011 !
b1100011 /
b1111 0
b11000110111110010110010100101101101111010101110011000101111010001100111011110010100011110001001001110111111001011010101011000101 =
b10001100 .
b10001100 <
b11111 )
b1100011 $
b1100011 ,
b1100011 9
b1100101 5
b11101101 7
b1110 4
b1110 8
b1111111100101111110000001011111 *
1%
#3500
0%
#3550
b1010 !
b1010 /
b0 0
b1010 $
b1010 ,
b1010 9
b100000 )
b11111001 .
b11111001 <
b11000110011000110110010100101101101111010101110011000101111010001100111011110010100011110001001001110111111001011010101011000101 =
b1111 4
b1111 8
b10001100 7
b1100011 5
1%
#3600
0%
#3650
b10000000 !
b10000000 /
b1 0
b1010011000110110010100101101101111010101110011000101111010001100111011110010100011110001001001110111111001011010101011000101 =
b11000110 .
b11000110 <
b100001 )
b10000000 $
b10000000 ,
b10000000 9
b1010 5
b11111001 7
b0 4
b0 8
1%
#3700
0%
#3750
b100000 !
b100000 /
b10 0
b100000 $
b100000 ,
b100000 9
b100010 )
b11000101 .
b11000101 <
b1010011000110110010100101101101111010101110011000101111010001100111011110010100011110001001001110111111001011010101010000000 =
b1 4
b1 8
b11000110 7
b10000000 5
b11001000101000011101110011011 *
1%
#3800
0%
#3850
b10101010 !
b10101010 /
b11 0
b1010011000110110010100101101101111010101110011000101111010001100111011110010100011110001001001110111111001010010000010000000 =
b10101010 .
b10101010 <
b100011 )
b10101010 $
b10101010 ,
b10101010 9
b100000 5
b11000101 7
b10 4
b10 8
1%
#3900
0%
#3950
b10011101 !
b10011101 /
b100 0
b10011101 $
b10011101 ,
b10011101 9
b100100 )
b11100101 .
b11100101 <
b1010011000110110010100101101101111010101110011000101111010001100111011110010100011110001001001110111101010100010000010000000 =
b11 4
b11 8
b10101010 7
b10101010 5
1%
#4000
0%
#4050
b10010110 !
b10010110 /
b101 0
b1010011000110110010100101101101111010101110011000101111010001100111011110010100011110001001010011101101010100010000010000000 =
b1110111 .
b1110111 <
b100101 )
b10010110 $
b10010110 ,
b10010110 9
b10011101 5
b11100101 7
b100 4
b100 8
1%
#4100
0%
#4150
b10011 !
b10011 /
b110 0
b10011 $
b10011 ,
b10011 9
b100110 )
b10010 .
b10010 <
b1010011000110110010100101101101111010101110011000101111010001100111011110010100011111001011010011101101010100010000010000000 =
b101 4
b101 8
b1110111 7
b10010110 5
b1010000010111110011101110 *
1%
#4200
0%
#4250
b1101 !
b1101 /
b111 0
b1010011000110110010100101101101111010101110011000101111010001100111011110010000100111001011010011101101010100010000010000000 =
b10001111 .
b10001111 <
b100111 )
b1101 $
b1101 ,
b1101 9
b10011 5
b10010 7
b110 4
b110 8
1%
#4300
0%
#4350
b1010011 !
b1010011 /
b1000 0
b1010011 $
b1010011 ,
b1010011 9
b101000 )
b11110010 .
b11110010 <
b1010011000110110010100101101101111010101110011000101111010001100111000001101000100111001011010011101101010100010000010000000 =
b111 4
b111 8
b10001111 7
b1101 5
1%
#4400
0%
#4450
b1101011 !
b1101011 /
b1001 0
b1010011000110110010100101101101111010101110011000101111010000101001100001101000100111001011010011101101010100010000010000000 =
b11001110 .
b11001110 <
b101001 )
b1101011 $
b1101011 ,
b1101011 9
b1010011 5
b11110010 7
b1000 4
b1000 8
b101111010100011011010011010 *
1%
#4500
0%
#4550
b11010101 !
b11010101 /
b1010 0
b11010101 $
b11010101 ,
b11010101 9
b101010 )
b11101000 .
b11101000 <
b1010011000110110010100101101101111010101110011000101011010110101001100001101000100111001011010011101101010100010000010000000 =
b1001 4
b1001 8
b11001110 7
b1101011 5
1%
#4600
0%
#4650
b10 !
b10 /
b1011 0
b1010011000110110010100101101101111010101110011010101011010110101001100001101000100111001011010011101101010100010000010000000 =
b11000101 .
b11000101 <
b101011 )
b10 $
b10 ,
b10 9
b11010101 5
b11101000 7
b1010 4
b1010 8
1%
#4700
0%
#4750
b10101110 !
b10101110 /
b1100 0
b10101110 $
b10101110 ,
b10101110 9
b101100 )
b1011100 .
b1011100 <
b1010011000110110010100101101101111010000001011010101011010110101001100001101000100111001011010011101101010100010000010000000 =
b1011 4
b1011 8
b11000101 7
b10 5
1%
#4800
0%
#4850
b11101 !
b11101 /
b1101 0
b1010011000110110010100101101101011100000001011010101011010110101001100001101000100111001011010011101101010100010000010000000 =
b10111101 .
b10111101 <
b101101 )
b11101 $
b11101 ,
b11101 9
b10101110 5
b1011100 7
b1100 4
b1100 8
b1011110011001010000000011001 *
1%
#4900
0%
#4950
b11001111 !
b11001111 /
b1110 0
b11001111 $
b11001111 ,
b11001111 9
b101110 )
b101101 .
b101101 <
b1010011000110110010100011101101011100000001011010101011010110101001100001101000100111001011010011101101010100010000010000000 =
b1101 4
b1101 8
b10111101 7
b11101 5
1%
#5000
0%
#5050
b100011 !
b100011 /
b1111 0
b1010011000111100111100011101101011100000001011010101011010110101001100001101000100111001011010011101101010100010000010000000 =
b1100101 .
b1100101 <
b101111 )
b100011 $
b100011 ,
b100011 9
b11001111 5
b101101 7
b1110 4
b1110 8
1%
#5100
0%
#5150
b1010 !
b1010 /
b0 0
b1010 $
b1010 ,
b1010 9
b110000 )
b1100011 .
b1100011 <
b1010001000111100111100011101101011100000001011010101011010110101001100001101000100111001011010011101101010100010000010000000 =
b1111 4
b1111 8
b1100101 7
b100011 5
b1011001101001010110011111110101 *
1%
#5200
0%
#5250
b11001010 !
b11001010 /
b1 0
b1010 .
b1010 <
b110001 )
b11001010 $
b11001010 ,
b11001010 9
b1010 5
b1100011 7
b0 4
b0 8
1%
#5300
0%
#5350
b111100 !
b111100 /
b10 0
b111100 $
b111100 ,
b111100 9
b110010 )
b10000000 .
b10000000 <
b1010001000111100111100011101101011100000001011010101011010110101001100001101000100111001011010011101101010100010000011001010 =
b1 4
b1 8
b1010 7
b11001010 5
1%
#5400
0%
#5450
b11110010 !
b11110010 /
b11 0
b1010001000111100111100011101101011100000001011010101011010110101001100001101000100111001011010011101101010100011110011001010 =
b100000 .
b100000 <
b110011 )
b11110010 $
b11110010 ,
b11110010 9
b111100 5
b10000000 7
b10 4
b10 8
1%
#5500
0%
#5550
b10001010 !
b10001010 /
b100 0
b10001010 $
b10001010 ,
b10001010 9
b110100 )
b10101010 .
b10101010 <
b1010001000111100111100011101101011100000001011010101011010110101001100001101000100111001011010011101111100100011110011001010 =
b11 4
b11 8
b100000 7
b11110010 5
b100001101000011010001000001011 *
1%
#5600
0%
#5650
b1000001 !
b1000001 /
b101 0
b1010001000111100111100011101101011100000001011010101011010110101001100001101000100111001011010001010111100100011110011001010 =
b10011101 .
b10011101 <
b110101 )
b1000001 $
b1000001 ,
b1000001 9
b10001010 5
b10101010 7
b100 4
b100 8
1%
#5700
0%
#5750
b110 0
b11011000 $
b11011000 ,
b11011000 9
b110110 )
b10010110 .
b10010110 <
b1010001000111100111100011101101011100000001011010101011010110101001100001101000100110100000110001010111100100011110011001010 =
b101 4
b101 8
b10011101 7
b1000001 5
b10010110 !
b10010110 /
b101101001011111001101000100 +
b11000 '
b11000 -
b1110110001100000011000000111 *
1%
#5800
0%
#5850
b10011 !
b10011 /
b111 0
b1010001000111100111100011101101011100000001011010101011010110101001100001101110110000100000110001010111100100011110011001010 =
b10011 .
b10011 <
b110111 )
b10001001 $
b10001001 ,
b10001001 9
b11011000 5
b10010110 7
b110 4
b110 8
1%
#5900
0%
#5950
b1101 !
b1101 /
b1000 0
b11101011 $
b11101011 ,
b11101011 9
b111000 )
b1101 .
b1101 <
b1010001000111100111100011101101011100000001011010101011010110101001110001001110110000100000110001010111100100011110011001010 =
b111 4
b111 8
b10011 7
b10001001 5
1%
#6000
0%
#6050
b1010011 !
b1010011 /
b1001 0
b1010001000111100111100011101101011100000001011010101011010111110101110001001110110000100000110001010111100100011110011001010 =
b1010011 .
b1010011 <
b111001 )
b10110110 $
b10110110 ,
b10110110 9
b11101011 5
b1101 7
b1000 4
b1000 8
1%
#6100
0%
#6150
b1101011 !
b1101011 /
b1010 0
b11000110 $
b11000110 ,
b11000110 9
b111010 )
b1101011 .
b1101011 <
b1010001000111100111100011101101011100000001011010101101101101110101110001001110110000100000110001010111100100011110011001010 =
b1001 4
b1001 8
b1010011 7
b10110110 5
b1101011110100111001011000101000 *
1%
#6200
0%
#6250
b11010101 !
b11010101 /
b1011 0
b1010001000111100111100011101101011100000001011000110101101101110101110001001110110000100000110001010111100100011110011001010 =
b11010101 .
b11010101 <
b111011 )
b10101110 $
b10101110 ,
b10101110 9
b11000110 5
b1101011 7
b1010 4
b1010 8
1%
#6300
0%
#6350
b10 !
b10 /
b1100 0
b10111100 $
b10111100 ,
b10111100 9
b111100 )
b10 .
b10 <
b1010001000111100111100011101101011101010111011000110101101101110101110001001110110000100000110001010111100100011110011001010 =
b1011 4
b1011 8
b11010101 7
b10101110 5
1%
#6400
0%
#6450
b10101110 !
b10101110 /
b1101 0
b1010001000111100111100011101101111001010111011000110101101101110101110001001110110000100000110001010111100100011110011001010 =
b10101110 .
b10101110 <
b111101 )
b101010 $
b101010 ,
b101010 9
b10111100 5
b10 7
b1100 4
b1100 8
1%
#6500
0%
#6550
b11101 !
b11101 /
b1110 0
b1011 $
b1011 ,
b1011 9
b111110 )
b11101 .
b11101 <
b1010001000111100111100101010101111001010111011000110101101101110101110001001110110000100000110001010111100100011110011001010 =
b1101 4
b1101 8
b10101110 7
b101010 5
1%
#6600
0%
#6650
b11001111 !
b11001111 /
b1111 0
b1010001000110000101100101010101111001010111011000110101101101110101110001001110110000100000110001010111100100011110011001010 =
b11001111 .
b11001111 <
b111111 )
b1110001 $
b1110001 ,
b1110001 9
b1011 5
b11101 7
b1110 4
b1110 8
b1111010010001100001010001110100 *
1%
#6700
0%
#6750
b100011 !
b100011 /
b0 0
b10000101 $
b10000101 ,
b10000101 9
b1000000 )
b100011 .
b100011 <
b1010011100010000101100101010101111001010111011000110101101101110101110001001110110000100000110001010111100100011110011001010 =
b1111 4
b1111 8
b11001111 7
b1110001 5
1%
#6800
0%
#6850
b1010 !
b1010 /
b1 0
b10000101011100010000101100101010101111001010111011000110101101101110101110001001110110000100000110001010111100100011110011001010 =
b1010 .
b1010 <
b1000001 )
b1001111 $
b1001111 ,
b1001111 9
b10000101 5
b100011 7
b0 4
b0 8
1%
#6900
0%
#6950
b11001010 !
b11001010 /
b10 0
b111011 $
b111011 ,
b111011 9
b1000010 )
b11001010 .
b11001010 <
b10000101011100010000101100101010101111001010111011000110101101101110101110001001110110000100000110001010111100100011110001001111 =
b1 4
b1 8
b1010 7
b1001111 5
1%
#7000
0%
#7050
b111100 !
b111100 /
b11 0
b10000101011100010000101100101010101111001010111011000110101101101110101110001001110110000100000110001010111100100011101101001111 =
b111100 .
b111100 <
b1000011 )
b111010 $
b111010 ,
b111010 9
b111011 5
b11001010 7
b10 4
b10 8
b1010001101001011111010110000000 *
1%
#7100
0%
#7150
b11110010 !
b11110010 /
b100 0
b1111110 $
b1111110 ,
b1111110 9
b1000100 )
b11110010 .
b11110010 <
b10000101011100010000101100101010101111001010111011000110101101101110101110001001110110000100000110001010001110100011101101001111 =
b11 4
b11 8
b111100 7
b111010 5
1%
#7200
0%
#7250
b10001010 !
b10001010 /
b101 0
b10000101011100010000101100101010101111001010111011000110101101101110101110001001110110000100000101111110001110100011101101001111 =
b10001010 .
b10001010 <
b1000101 )
b10101 $
b10101 ,
b10101 9
b1111110 5
b11110010 7
b100 4
b100 8
1%
#7300
0%
#7350
b1000001 !
b1000001 /
b110 0
b11110001 $
b11110001 ,
b11110001 9
b1000110 )
b1000001 .
b1000001 <
b10000101011100010000101100101010101111001010111011000110101101101110101110001001110110000001010101111110001110100011101101001111 =
b101 4
b101 8
b10001010 7
b10101 5
1%
#7400
0%
#7450
b11011000 !
b11011000 /
b111 0
b10000101011100010000101100101010101111001010111011000110101101101110101110001001111100010001010101111110001110100011101101001111 =
b11011000 .
b11011000 <
b1000111 )
b11011001 $
b11011001 ,
b11011001 9
b11110001 5
b1000001 7
b110 4
b110 8
b1000000101000101100111011101 *
1%
#7500
0%
#7550
b10001001 !
b10001001 /
b1000 0
b1100010 $
b1100010 ,
b1100010 9
b1001000 )
b10001001 .
b10001001 <
b10000101011100010000101100101010101111001010111011000110101101101110101111011001111100010001010101111110001110100011101101001111 =
b111 4
b111 8
b11011000 7
b11011001 5
1%
#7600
0%
#7650
b11101011 !
b11101011 /
b1001 0
b10000101011100010000101100101010101111001010111011000110101101100110001011011001111100010001010101111110001110100011101101001111 =
b11101011 .
b11101011 <
b1001001 )
b1001100 $
b1001100 ,
b1001100 9
b1100010 5
b10001001 7
b1000 4
b1000 8
1%
#7700
0%
#7750
b10110110 !
b10110110 /
b1010 0
b10011111 $
b10011111 ,
b10011111 9
b1001010 )
b10110110 .
b10110110 <
b10000101011100010000101100101010101111001010111011000110010011000110001011011001111100010001010101111110001110100011101101001111 =
b1001 4
b1001 8
b11101011 7
b1001100 5
1%
#7800
0%
#7850
b11000110 !
b11000110 /
b1011 0
b10000101011100010000101100101010101111001010111010011111010011000110001011011001111100010001010101111110001110100011101101001111 =
b11000110 .
b11000110 <
b1001011 )
b10001111 $
b10001111 ,
b10001111 9
b10011111 5
b10110110 7
b1010 4
b1010 8
1%
#7900
0%
#7950
b10101110 !
b10101110 /
b1100 0
b11111000 $
b11111000 ,
b11111000 9
b1001100 )
b10101110 .
b10101110 <
b10000101011100010000101100101010101111001000111110011111010011000110001011011001111100010001010101111110001110100011101101001111 =
b1011 4
b1011 8
b11000110 7
b10001111 5
b101011011111110011101100110 *
1%
#8000
0%
#8050
b10111100 !
b10111100 /
b1101 0
b10000101011100010000101100101010111110001000111110011111010011000110001011011001111100010001010101111110001110100011101101001111 =
b10111100 .
b10111100 <
b1001101 )
b10110111 $
b10110111 ,
b10110111 9
b11111000 5
b10101110 7
b1100 4
b1100 8
1%
#8100
0%
#8150
b101010 !
b101010 /
b1110 0
b10011111 $
b10011111 ,
b10011111 9
b1001110 )
b101010 .
b101010 <
b10000101011100010000101110110111111110001000111110011111010011000110001011011001111100010001010101111110001110100011101101001111 =
b1101 4
b1101 8
b10111100 7
b10110111 5
1%
#8200
0%
#8250
b1011 !
b1011 /
b1111 0
b10000101011100011001111110110111111110001000111110011111010011000110001011011001111100010001010101111110001110100011101101001111 =
b1011 .
b1011 <
b1001111 )
b1011100 $
b1011100 ,
b1011100 9
b10011111 5
b101010 7
b1110 4
b1110 8
1%
#8300
0%
#8350
b1110001 !
b1110001 /
b0 0
b1011011 $
b1011011 ,
b1011011 9
b1010000 )
b1110001 .
b1110001 <
b10000101010111001001111110110111111110001000111110011111010011000110001011011001111100010001010101111110001110100011101101001111 =
b1111 4
b1111 8
b1011 7
b1011100 5
1%
#8400
0%
#8450
b10000101 !
b10000101 /
b1 0
b1011011010111001001111110110111111110001000111110011111010011000110001011011001111100010001010101111110001110100011101101001111 =
b10000101 .
b10000101 <
b1010001 )
b10001001 $
b10001001 ,
b10001001 9
b1011011 5
b1110001 7
b0 4
b0 8
b10000011110110110101110111010101 *
1%
#8500
0%
#8550
b1001111 !
b1001111 /
b10 0
b1001001 $
b1001001 ,
b1001001 9
b1010010 )
b1001111 .
b1001111 <
b1011011010111001001111110110111111110001000111110011111010011000110001011011001111100010001010101111110001110100011101110001001 =
b1 4
b1 8
b10000101 7
b10001001 5
1%
#8600
0%
#8650
b111011 !
b111011 /
b11 0
b1011011010111001001111110110111111110001000111110011111010011000110001011011001111100010001010101111110001110100100100110001001 =
b111011 .
b111011 <
b1010011 )
b11010000 $
b11010000 ,
b11010000 9
b1001001 5
b1001111 7
b10 4
b10 8
1%
#8700
0%
#8750
b111010 !
b111010 /
b100 0
b11010111 $
b11010111 ,
b11010111 9
b1010100 )
b111010 .
b111010 <
b1011011010111001001111110110111111110001000111110011111010011000110001011011001111100010001010101111110110100000100100110001001 =
b11 4
b11 8
b111011 7
b11010000 5
b11000010000101111010010010010 *
1%
#8800
0%
#8850
b1111110 !
b1111110 /
b101 0
b1011011010111001001111110110111111110001000111110011111010011000110001011011001111100010001010111010111110100000100100110001001 =
b1111110 .
b1111110 <
b1010101 )
b1010001 $
b1010001 ,
b1010001 9
b11010111 5
b111010 7
b100 4
b100 8
b1101010000000011110010011100111 *
1%
#8900
0%
#8950
b10101 !
b10101 /
b110 0
b10010110 $
b10010110 ,
b10010110 9
b1010110 )
b10101 .
b10101 <
b1011011010111001001111110110111111110001000111110011111010011000110001011011001111100010101000111010111110100000100100110001001 =
b101 4
b101 8
b1111110 7
b1010001 5
1%
#9000
0%
#9050
b11110001 !
b11110001 /
b111 0
b1011011010111001001111110110111111110001000111110011111010011000110001011011001100101100101000111010111110100000100100110001001 =
b11110001 .
b11110001 <
b1010111 )
b1100 $
b1100 ,
b1100 9
b10010110 5
b10101 7
b110 4
b110 8
1%
#9100
0%
#9150
b11011001 !
b11011001 /
b1000 0
b11000010 $
b11000010 ,
b11000010 9
b1011000 )
b11011001 .
b11011001 <
b1011011010111001001111110110111111110001000111110011111010011000110001000001100100101100101000111010111110100000100100110001001 =
b111 4
b111 8
b11110001 7
b1100 5
1%
#9200
0%
#9250
b1100010 !
b1100010 /
b1001 0
b1011011010111001001111110110111111110001000111110011111010011001100001000001100100101100101000111010111110100000100100110001001 =
b1100010 .
b1100010 <
b1011001 )
b11001000 $
b11001000 ,
b11001000 9
b11000010 5
b11011001 7
b1000 4
b1000 8
1%
#9300
0%
#9350
b1001100 !
b1001100 /
b1010 0
b1110111 $
b1110111 ,
b1110111 9
b1011010 )
b1001100 .
b1001100 <
b1011011010111001001111110110111111110001000111110011111110010001100001000001100100101100101000111010111110100000100100110001001 =
b1001 4
b1001 8
b1100010 7
b11001000 5
b1101101001000000101110010100011 *
1%
#9400
0%
#9450
b10011111 !
b10011111 /
b1011 0
b1011011010111001001111110110111111110001000111101110111110010001100001000001100100101100101000111010111110100000100100110001001 =
b10011111 .
b10011111 <
b1011011 )
b111101 $
b111101 ,
b111101 9
b1110111 5
b1001100 7
b1010 4
b1010 8
1%
#9500
0%
#9550
b10001111 !
b10001111 /
b1100 0
b10010 $
b10010 ,
b10010 9
b1011100 )
b10001111 .
b10001111 <
b1011011010111001001111110110111111110000011110101110111110010001100001000001100100101100101000111010111110100000100100110001001 =
b1011 4
b1011 8
b10011111 7
b111101 5
1%
#9600
0%
#9650
b11111000 !
b11111000 /
b1101 0
b1011011010111001001111110110111000100100011110101110111110010001100001000001100100101100101000111010111110100000100100110001001 =
b11111000 .
b11111000 <
b1011101 )
b1111110 $
b1111110 ,
b1111110 9
b10010 5
b10001111 7
b1100 4
b1100 8
1%
#9700
0%
#9750
b10110111 !
b10110111 /
b1110 0
b1101101 $
b1101101 ,
b1101101 9
b1011110 )
b10110111 .
b10110111 <
b1011011010111001001111101111110000100100011110101110111110010001100001000001100100101100101000111010111110100000100100110001001 =
b1101 4
b1101 8
b11111000 7
b1111110 5
b10000111010110000010111101001 *
1%
#9800
0%
#9850
b10011111 !
b10011111 /
b1111 0
b1011011010111000110110101111110000100100011110101110111110010001100001000001100100101100101000111010111110100000100100110001001 =
b10011111 .
b10011111 <
b1011111 )
b111001 $
b111001 ,
b111001 9
b1101101 5
b10110111 7
b1110 4
b1110 8
1%
#9900
0%
#9950
b1011100 !
b1011100 /
b0 0
b11111 $
b11111 ,
b11111 9
b1100000 )
b1011100 .
b1011100 <
b1011011001110010110110101111110000100100011110101110111110010001100001000001100100101100101000111010111110100000100100110001001 =
b1111 4
b1111 8
b10011111 7
b111001 5
b11100010101100011011001011000101 *
1%
#10000
0%
#10050
b1011011 !
b1011011 /
b1 0
b11111001110010110110101111110000100100011110101110111110010001100001000001100100101100101000111010111110100000100100110001001 =
b1011011 .
b1011011 <
b1100001 )
b11010011 $
b11010011 ,
b11010011 9
b11111 5
b1011100 7
b0 4
b0 8
1%
#10100
0%
#10150
b10001001 !
b10001001 /
b10 0
b10000101 $
b10000101 ,
b10000101 9
b1100010 )
b10001001 .
b10001001 <
b11111001110010110110101111110000100100011110101110111110010001100001000001100100101100101000111010111110100000100100111010011 =
b1 4
b1 8
b1011011 7
b11010011 5
1%
#10200
0%
